id,first_name,email,country,latitude,longitude,Date Joined
61480-137,Olympie Mantz,omantz9@hubpages.com,ID,-6.2200719,105.843708,2017-10-14T11:55:46Z
0615-7679,Reinhold Forbes,rforbesa@is.gd,RU,42.7003378,47.2432976,2018-07-01T16:04:27Z
49035-558,Charline Harrild,charrildb@ifeng.com,CN,29.654838,91.140552,2018-06-20T05:37:49Z
68400-704,Michale Grenshiels,mgrenshielsc@redcross.org,SE,59.6136775,16.2283098,2018-02-25T21:05:51Z
49348-946,Chiarra Andreini,candreinid@shutterfly.com,SE,56.6444907,14.224297,2018-02-26T04:51:12Z
68788-9550,Melvyn McCoughan,mmccoughane@globo.com,PL,49.8719709,19.6028339,2018-08-25T23:11:23Z
0641-6036,Myron Mattiuzzi,mmattiuzzif@trellian.com,ID,-6.2163932,106.8643671,2018-06-07T13:14:40Z
51060-049,Quill Maceur,qmaceurg@networkadvertising.org,MD,48.3611707,27.0855305,2018-09-08T10:37:50Z
15127-127,Leslie Presnall,lpresnallh.sitemeter.com,BR,-22.2275469,-48.7379527,2018-06-29T04:23:34Z
55910-563,Mellie Berthot,mberthoti@wordpress.com,JP,37.8996732,139.2013381,2018-01-13T10:18:56Z
64159-6992,Alfy Wildman,awildmanj@marketwat ch.com,JP,37.6214616,140.4902763,2017-11-21T21:10:29Z
30014-100,Evyn Crook,ecrookk@vkontakte.ru,ID,-7.7408587,108.1754804,2018-02-24T20:16:51Z
55648-975,Urbano Pelman,upelmanl@epa.gov,BR,-13.9468358,-39.6724573,2018-03-10T19:37:00Z
0143-9747,Erna Naulls,enaullsm@meetup.com,AR,-32.8842032,-68.7998021,2018-09-19T22:44:14Z
55154-2226,Carole Riveles,crivelesn@army.mil,AZ,40.4810579,50.1454455,2018-04-04T07:42:06Z
55154-2709,Jyoti Maier,jmaiero@phpbb.com,CN,34.56128,105.58335,2018-04-23T01:41:29Z
54868-5311,Christine Barnhill,cbarnhillp@google.co.jp,FI,62.2956257,28.2513674,2017-10-29T01:49:04Z
50184-1005,Blaine Dabernott,bdabernottq@patch.com,BA,42.8756616,18.4292187,2018-07-22T16:36:22Z
68345-965,Sean Martensen,smartensenr@dailymail.co.uk,ID,2.6928351,97.8503951,2018-08-18T21:21:06Z
48951-9159,Hobard Shanahan,hshanahans@posterous.com,CN,25.575165,111.824739,2018-05-26T04:43:52Z
54868-5075,Penni Pinniger,ppinnigert@macromedia.com,CN,28.260141,112.571923,2018-06-16T18:53:49Z
54868-5656,Berty Shird,bshirdu@usda.gov,PH,7.1760285,125.4423957,2018-05-13T19:23:21Z
54868-2971,Jacquelyn Dicks,jdicksv@eepurl.com,RS,45.1870126,20.5134778,2018-06-03T16:29:00Z
16714-418,Abba Moscone,amosconew@home.pl,KM,-11.8256582,43.4536443,2018-07-10T15:31:15Z
57337-027,Josiah Cast,jcastx@theatlantic.com,MN,48.659828,102.625198,2018-06-05T15:00:02Z
52125-684,Natalee Ventham,nventhamy@webeden.co.uk,UA,51.524571,32.5004914,2018-02-26T09:35:16Z
49349-513,Mylo Eliot,meliotz@mashable.com,UZ,40.3053813,71.957917,2018-01-28T16:08:07Z
63323-660,Joann Monday,jmonday10@diigo.com,BR,-10.8531643,-37.1269791,2018-02-09T02:49:31Z
70253-235,Linc Labon,llabon11@163.com,ID,4.9026627,97.7878579,2017-10-22T20:15:35Z
33342-038,Bogey Keith,bkeith12@marketwatch.com,CN,38.521085,102.194089,2018-03-14T14:15:23Z
55154-1927,Mohammed Petran,mpetran13@google.co.uk,MN,49.1,91.8666667,2018-08-14T08:37:10Z
49348-480,Melodie Dallison,mdallison14@hostgator.com,RS,44.3037425,20.5613514,2018-06-26T20:03:06Z
36800-188,Justinn Gokes,jgokes15@nbcnews.com,YE,13.78024,43.86901,2018-02-18T12:12:59Z
0378-6899,Kendell Perillo,kperillo16@youtube.com,CN,30.833435,111.073494,2018-05-14T02:18:43Z
65734-103,Cal Sybe,csybe17@4shared.com,AL,40.3672602,20.4284431,2018-09-21T06:03:43Z
43063-446,Alika Omrod,aomrod18@theglobeandmail.com,BR,-21.2525138,-48.3256762,2018-03-05T14:24:51Z
63323-604,Dorise Samson,dsamson19@sciencedirect.com,ZA,-29.0748919,30.6057342,2017-12-26T17:50:17Z
0093-7224,Adena Dreakin,adreakin1a@cnn.com,PH,13.9743478,121.6910432,2018-08-21T22:30:52Z
52125-548,Albrecht Gilhespy,agilhespy1b@google.cn,CN,26.6849798,100.7492159,2018-05-15T10:53:07Z
61657-0101,Georgiana Mariaud,gmariaud1c@cnn.com,HR,43.9375282,15.162899,2018-07-10T05:12:06Z
67172-686,Caron Kluger,ckluger1d@google.it,CD,-0.2842862,20.8850949,2018-07-24T13:33:55Z
0407-1414,Jonell Quest,jquest1e@reference.com,US,42.3745311,-88.1263369,2017-11-05T00:29:12Z
0409-2267,Eden Kubiczek,ekubiczek1f@seesaa.net,SE,47.0163969,-68.1430029,2018-03-30T20:31:25Z
36987-3212,Vanya Breckenridge,vbreckenridge1g@globo.com,DO,18.4849486,-69.8627901,2017-11-19T21:28:58Z
57520-0164,Renie Thresh,rthresh1h@baidu.com,MN,48,113.93333,2018-04-20T20:56:50Z
0363-2177,Kendrick Featherstonhalgh,kfeatherstonhalgh1i@freewebs.com,SV,13.8086742,-89.1801225,2018-10-01T09:56:36Z
65841-619,Casandra Ballinghall,cballinghall1j@pagesperso-orange.fr,CA,50.5801021,-113.8707312,2018-06-13T04:11:18Z
49035-041,Justinn Colloff,jcolloff1k@miibeian.gov.cn,PH,18.2480842,120.6207677,2017-11-30T19:46:33Z
63776-310,Berkeley Ravenscroft,bravenscroft1l@wikimedia.org,CN,30.699439,115.078981,2017-10-21T05:16:14Z
43128-035,Zack Huglin,zhuglin1m@123-reg.co.uk,PL,52.3181885,16.1282552,2018-09-09T09:42:39Z
0781-3344,Gardy Cram,gcram1n@feedburner.com,CN,26.750454,119.105047,2018-01-11T08:13:36Z
55316-072,Tandi Swapp,tswapp1o@istockphoto.com,AM,40.025532,44.5593439,2018-06-23T00:44:41Z
41163-190,Aymer Hargie,ahargie1p@issuu.com,CN,30.7765271,121.247793,2018-05-23T08:03:53Z
69096-0100,Jamison Clue,jclue1q@netlog.com,TH,17.5767798,104.5946633,2017-10-20T07:57:41Z
53808-0627,Tana Kirkbride,tkirkbride1r@bravesites.com,CN,29.693316,120.167774,2018-05-23T02:00:23Z
55301-253,Christiana Trahearn,ctrahearn1s@jalbum.net,CU,22.5064672,-79.4760133,2017-10-17T15:30:32Z
68788-9196,Breanne Rosie,brosie1t@newyorker.com,PH,14.6425547,121.010151,2018-08-09T22:06:04Z
52731-7032,Debee Angus,dangus1u@networkadvertising.org,FR,47.3591366,2.8002946,2017-11-19T16:06:01Z
42254-103,Marcia Huccaby,mhuccaby1v@hostgator.com,SE,59.7458284,18.6851872,2018-06-19T15:33:33Z
44911-0066,Jarib Chisholme,jchisholme1w@indiatimes.com,TN,37.2746124,9.8627243,2018-06-12T08:45:37Z
51285-120,Lou Center,lcenter1x@nih.gov,PL,51.976466,21.215337,2018-08-13T20:41:56Z
0409-1539,Abdul Dightham,adightham1y@merriam-webster.com,ID,-8.8014766,115.5740294,2018-09-07T05:35:26Z
54868-5715,Ted Kirkup,tkirkup1z@deviantart.com,PT,42.103919,-8.2727494,2018-05-02T18:11:51Z
49643-019,Thom Gerbi,tgerbi20@behance.net,PH,8.150969,123.8502563,2018-08-21T22:42:17Z
37205-024,Floria Dacombe,fdacombe21@github.io,DO,18.4530602,-69.9474964,2018-07-05T06:54:58Z
37808-420,George Fagge,gfagge22@tiny.cc,CZ,49.224335,15.6616683,2017-11-12T01:01:33Z
50114-6090,Raynard Belbin,rbelbin23@moonfruit.com,PL,51.240387,20.3798933,2018-02-15T18:04:46Z
48102-003,Mattie Sidry,msidry24@blogs.com,KP,42.3383958,130.3874889,2018-05-21T21:52:13Z
50636-002,Windy Glendzer,wglendzer25@buzzfeed.com,CN,38.416663,112.734174,2018-08-30T16:20:10Z
54868-4651,Maurizia Lude,mlude26@nature.com,NO,65.8375549,13.2106011,2018-07-02T02:55:42Z
68084-085,Scarlett Artindale,sartindale27@diigo.com,VE,8.1707969,-63.5658573,2018-02-28T12:42:29Z
65044-1518,Emmy Oxer,eoxer28@sun.com,ID,-7.9868869,113.7513827,2018-04-19T16:17:06Z
0363-0438,Cherlyn Shepperd,cshepperd29@toplist.cz,BR,-7.5613556,-40.1862129,2018-01-15T03:10:28Z
0007-4641,Gayla Mazdon,gmazdon2a@indiatimes.com,ID,-7.406895,111.0370989,2017-12-21T20:57:23Z
55714-4416,Brett Wethered,bwethered2b@businesswire.com,PH,11.1138152,125.3867985,2018-05-26T02:47:58Z
54868-0117,Patrica Wehner,pwehner2c@arstechnica.com,CO,1.6135167,-76.8951551,2018-04-24T09:01:19Z
55154-0883,Huey Harvey,hharvey2d@alexa.com,CN,25.941937,117.365052,2018-04-14T14:28:12Z
0781-5950,Kit Sleet,ksleet2e@weebly.com,PH,7.444229,123.33769,2018-09-12T01:38:23Z
37000-253,Sheelah Penkethman,spenkethman2f@live.com,FR,45.7397125,4.8372255,2018-02-09T19:45:44Z
60512-6998,Judy MacDonagh,jmacdonagh2g@pinterest.com,CN,32.9454027,-117.2399868,2018-01-17T00:13:27Z
52959-309,Shara Pidwell,spidwell2h@pen.io,CO,5.242598,-75.781831,2018-06-09T09:50:12Z
43269-851,Greer Martusewicz,gmartusewicz2i@wp.com,US,39.29,-76.61,2017-12-30T03:51:36Z
36987-2990,Gordy Henzer,ghenzer2j@unblog.fr,SE,56.6566914,16.5063562,2018-02-04T04:36:22Z
57520-0353,Vail Congreve,vcongreve2k@ameblo.jp,PH,9.8411782,123.9121342,2018-07-22T09:51:55Z
50436-5000,Sam McTurk,smcturk2l@pagesperso-orange.fr,AM,40.852747,44.2741475,2018-06-01T13:45:06Z
23710-225,Moe Eberz,meberz2m@geocities.com,CU,23.018033,-82.3343375,2018-05-22T17:35:41Z
52584-475,Morgan Credland,mcredland2n@nhs.uk,US,38.8943618,-77.04997,2018-06-21T08:58:00Z
55111-268,Terrie Ellett,tellett2o@ask.com,SE,59.6189852,17.0509784,2018-01-08T09:43:23Z
13537-550,Maud Gierardi,mgierardi2p@tinypic.com,PK,31.8167901,73.9212283,2018-09-03T19:06:48Z
59579-002,Maye Labarre,mlabarre2q@bravesites.com,PA,8.3375063,-82.5510469,2018-03-14T22:32:29Z
43353-787,Berry Cromblehome,bcromblehome2r@sitemeter.com,RU,59.927607,32.296821,2018-01-09T07:13:10Z
41250-667,Alwyn Rossant,arossant2s@nytimes.com,CN,30.60215,110.836537,2018-07-30T22:55:32Z
60905-0021,Nigel Bonnier,nbonnier2t@ehow.com,ID,-6.9174639,107.6191228,2018-05-30T04:03:08Z
52003-011,Rivkah Tolman,rtolman2u@unesco.org,CN,41.666028,122.1234429,2018-05-05T11:59:59Z
52982-107,Goldia Turley,gturley2v@yellowbook.com,SE,55.8625501,13.1435643,2017-12-24T11:14:16Z
14961-001,Cacilia Petrakov,cpetrakov2w@gmpg.org,BR,-18.6517964,-48.1904503,2018-09-06T07:58:21Z
33261-623,Faith Clinkard,fclinkard2x@discuz.net,FR,49.0511571,4.0911917,2018-06-28T15:42:35Z
17478-510,Rennie Skowcraft,rskowcraft2y@bbc.co.uk,PH,11.2666664,122.5333328,2017-10-14T10:36:08Z
61786-049,Artus Attride,aattride2z@comcast.net,RU,59.0405545,52.3557986,2018-03-06T17:50:48Z
68770-101,Kippar Ivashnikov,kivashnikov30@cloudflare.com,NL,51.4131558,5.4852794,2018-05-17T04:43:26Z
0268-1532,Mickie Drissell,mdrissell31@theatlantic.com,TJ,40.637939,69.59436,2018-05-07T18:34:14Z
0179-0025,Bliss Kerby,bkerby32@flavors.me,NI,13.5292779,-86.2856819,2018-07-01T20:42:22Z
0869-0810,Mikel Denisevich,mdenisevich33@devhub.com,PA,7.9819727,-81.166481,2017-10-19T04:53:28Z
0031-2235,Alex Sumshon,asumshon34@fda.gov,ID,-2.6360357,120.5480578,2018-08-03T23:01:11Z
60429-175,Ginnifer Hairsine,ghairsine35@hibu.com,PK,27.96897,68.80481,2018-08-31T14:21:16Z
10019-037,Emalia Torpie,etorpie36@msu.edu,PT,41.5826404,-6.2652906,2018-08-23T10:11:10Z
59050-254,Peirce Cubbon,pcubbon37@boston.com,PH,9.6356686,123.8501765,2018-04-02T16:02:05Z
21130-214,Aloin Humes,ahumes38@tumblr.com,CN,27.569678,116.63704,2017-12-10T09:07:56Z
54482-144,Del Reekie,dreekie39@sogou.com,LV,56.355176,26.1725258,2018-06-04T11:27:28Z
54162-015,Lon Murfill,lmurfill3a@ihg.com,MH,9.82511,169.31065,2018-02-19T10:49:01Z
41520-224,Tomas Ruf,truf3b@creativecommons.org,PT,37.2848363,-7.4666729,2017-11-02T15:45:23Z
54868-5545,Roosevelt Harbottle,rharbottle3c@mediafire.com,PL,49.7392784,19.8619324,2018-06-26T15:58:37Z
11086-037,Murray Buckner,mbuckner3d@umn.edu,CN,31.85932,105.754223,2018-02-21T08:17:51Z
0641-6118,Dael Jolland,djolland3e@jugem.jp,KZ,42.8718884,73.1963111,2018-07-13T15:20:52Z
14783-056,Rhiamon Wiltshier,rwiltshier3f@over-blog.com,ZA,-22.8824635,30.1454694,2018-08-25T13:37:28Z
0173-0838,Nickie Clandillon,nclandillon3g@hugedomains.com,NO,58.9747897,5.6952439,2018-03-29T18:31:17Z
60760-933,Janelle Rogan,jrogan3h@bloglines.com,VN,20.7526658,106.6718702,2018-09-07T18:45:01Z
0703-3069,Paton Kluge,pkluge3i@dagondesign.com,SE,59.3192962,13.5389591,2017-11-01T23:22:54Z
0283-0886,Erhard Sacks,esacks3j@360.cn,NG,12.8776754,6.4903141,2018-02-16T22:32:23Z
63824-340,Zachary McPhilemy,zmcphilemy3k@naver.com,RU,43.8249005,131.9019175,2018-04-21T20:11:53Z
37012-516,Emmi Slobom,eslobom3l@hc360.com,SL,8.550734,-11.352539,2018-02-15T02:16:33Z
41250-432,Corabel Linsley,clinsley3m@deviantart.com,ID,-7.002985,112.282503,2018-09-08T23:24:22Z
68400-115,Corine Kurdani,ckurdani3n@engadget.com,ID,-7.898852,111.9284017,2018-06-13T09:49:42Z
0703-9032,Sheffield Warstall,swarstall3o@paginegialle.it,PL,50.689856,20.7734253,2018-01-26T19:53:16Z
52584-182,Caty Gabrieli,cgabrieli3p@icq.com,PT,-23.5390859,-46.3116591,2017-10-28T07:52:21Z
54868-3714,Kearney Strute,kstrute3q@godaddy.com,PH,7.6392002,123.3058014,2018-09-21T01:05:41Z
41595-5523,Lorna Warrender,lwarrender3r@eepurl.com,CN,23.802044,116.932436,2018-06-02T16:18:20Z
63255-011,Martelle Alleburton,malleburton3s@pinterest.com,MY,5.329576,103.1369108,2018-04-22T17:13:40Z
24338-602,Miltie Ofer,mofer3t@about.me,RS,45.3567755,19.6173117,2018-03-30T06:10:28Z
30142-831,Jacintha Kirkwood,jkirkwood3u@dmoz.org,PL,50.2759698,19.5946634,2017-10-31T00:56:57Z
61727-342,Myrah Medland,mmedland3v@princeton.edu,BR,-3.7600304,-38.5349814,2018-10-09T16:17:00Z
67405-275,Nikolaus Kinghorne,nkinghorne3w@flavors.me,PT,41.10388,-7.1677878,2018-01-22T11:23:55Z
0268-1139,Heywood Blizard,hblizard3x@freewebs.com,CN,30.677233,121.015142,2018-07-06T19:49:46Z
69034-001,Charline Pindell,cpindell3y@artisteer.com,FR,45.697904,0.964671,2017-11-03T20:33:52Z
0264-7625,Sonnie Batchellor,sbatchellor3z@sourceforge.net,ID,-7.2026914,108.1013637,2018-03-02T12:31:28Z
0363-2106,Ev Easthope,eeasthope40@ow.ly,CN,33.253142,112.64751,2018-08-20T16:44:53Z
48951-1161,Tore Meugens,tmeugens41@pen.io,PL,50.8075698,21.8528832,2017-11-26T16:11:43Z
52279-001,Anselma Stollman,astollman42@histats.com,MY,3.9671435,103.40391,2018-06-28T08:08:29Z
75981-667,Alonso Pull,apull43@ed.gov,CN,39.871981,116.686439,2018-01-02T21:41:23Z
67510-0378,Gayleen Baxter,gbaxter44@ucsd.edu,CA,45.8206187,-73.9300943,2018-04-06T17:10:00Z
35356-589,Sidonia Dummigan,sdummigan45@wufoo.com,PH,14.731859,121.698077,2018-02-28T09:28:34Z
55526-0002,Kellen Caplan,kcaplan46@youtu.be,PH,8.5131518,124.7568082,2018-08-24T03:29:29Z
53746-145,Adora Storrock,astorrock47@storify.com,MK,41.8036152,20.9182981,2018-09-15T21:40:55Z
52125-334,Eleen Ralfe,eralfe48@t.co,CN,31.719806,112.257788,2017-12-29T21:50:51Z
43353-756,Van Kiezler,vkiezler49@parallels.com,PE,-17.543301,-70.017471,2018-09-22T04:29:25Z
55714-1709,Berky Slocumb,bslocumb4a@privacy.gov.au,DE,51.4787653,12.0365785,2018-03-29T16:45:49Z
54973-0605,Enrique Callender,ecallender4b@boston.com,AG,17.0349138,-61.7853499,2018-08-23T11:47:30Z
37012-580,Karlyn Matherson,kmatherson4c@intel.com,JP,31.739255,130.670516,2018-08-08T08:35:19Z
68391-500,Smith Kildahl,skildahl4d@wix.com,HN,14,-88.35,2017-11-05T23:47:46Z
49348-231,Sheelah Faherty,sfaherty4e@drupal.org,RU,42.6002262,46.5477914,2018-03-12T11:06:29Z
0054-0117,Alleyn Bellord,abellord4f@auda.org.au,RU,55.7754263,40.4248943,2017-12-09T23:58:13Z
64127-144,Fabio McGairl,fmcgairl4g@yellowpages.com,UA,47.7016459,37.4209877,2017-11-12T18:47:22Z
67767-117,Alexei Clifft,aclifft4h@mac.com,UA,47.1738671,37.6914764,2018-08-22T14:09:51Z
68084-127,Caren Cosham,ccosham4i@scribd.com,PH,10.8825337,124.9871635,2018-04-07T02:24:26Z
65862-199,Asa Brandham,abrandham4j@t-online.de,PT,39.1314511,-9.0148912,2018-10-01T12:30:09Z
62225-600,Lizzie Kinsella,lkinsella4k@soup.io,CN,23.02299,113.1039,2018-01-10T19:23:39Z
36987-1605,Brendan Rummings,brummings4l@sogou.com,PH,15.3098074,120.8551691,2017-11-08T05:49:43Z
55154-1818,Hendrika MacAree,hmacaree4m@skyrock.com,PT,39.6507816,-8.5452616,2018-06-21T07:39:37Z
68025-046,Ado Rainforth,arainforth4n@nature.com,CN,35.575064,111.230547,2017-12-31T11:54:28Z
51706-510,Timmie Worge,tworge4o@techcrunch.com,GT,14.904946,-91.780213,2017-12-12T07:37:15Z
0591-3614,Dietrich Overington,doverington4p@ehow.com,CZ,49.0386312,16.5942897,2017-11-19T13:43:42Z
42254-230,Bendix Rodolico,brodolico4q@netscape.com,CO,9.9298167,-73.9590333,2018-02-06T14:18:49Z
37000-334,Terrie Sidwell,tsidwell4r@yelp.com,CN,31.3106446,120.6256806,2018-07-17T15:14:53Z
37808-432,Violet Codner,vcodner4s@istockphoto.com,ID,-6.1950758,106.8216077,2018-07-18T14:49:42Z
60681-2304,Daisi Valois,dvalois4t@ebay.co.uk,CN,25.748008,104.518068,2018-09-18T15:08:22Z
41190-244,Shaun McShane,smcshane4u@census.gov,CN,31.753884,118.565462,2018-01-09T00:32:32Z
0140-0006,Gilli Dashkov,gdashkov4v@un.org,KR,36.82167,128.63083,2018-04-26T17:27:28Z
16571-160,Vasilis Stodit,vstodit4w@constantcontact.com,ID,-7.3391892,106.8768415,2018-09-25T22:22:24Z
0185-0171,Jesse Merredy,jmerredy4x@cnbc.com,CN,23.681533,110.584168,2018-03-17T05:02:47Z
65162-835,Kaitlin Blain,kblain4y@gmpg.org,SE,59.853262,17.6356163,2017-12-16T07:36:32Z
52654-0002,Natty Knappen,nknappen4z@ning.com,ID,-6.2948133,106.7205154,2018-05-30T05:12:46Z
64141-002,Blanche Dunn,bdunn50@livejournal.com,CZ,50.5032152,14.2856356,2018-05-28T04:21:54Z
53499-5349,Berton Buzza,bbuzza51@umich.edu,PT,40.1122778,-7.121411,2018-02-22T04:31:38Z
49781-032,Rhiamon Newsome,rnewsome52@senate.gov,PH,7.1756111,124.9231052,2017-10-14T16:46:57Z
0268-0879,Ringo Bigby,rbigby53@yale.edu,UG,1.7131812,33.6063855,2017-12-31T06:48:25Z
61047-770,Joby Tofanini,jtofanini54@altervista.org,ID,-7.1274078,113.5282081,2017-11-05T20:26:18Z
36800-964,Corny Woodyer,cwoodyer55@biglobe.ne.jp,CN,22.517585,113.39277,2018-08-11T00:56:05Z
10742-8782,Chrissy Seyfart,cseyfart56@usatoday.com,MX,19.4102526,-99.0073673,2018-06-18T05:56:56Z
43742-0025,Kris Packwood,kpackwood57@last.fm,FI,64.8101062,25.987464,2018-07-31T17:14:37Z
55154-6971,Kalle Glenwright,kglenwright58@facebook.com,GM,13.5460383,-14.9717426,2018-03-31T21:03:35Z
52959-138,Drugi De Bell,dde59@time.com,PH,7.5958893,126.4361995,2018-03-20T01:14:45Z
55319-160,Irene Wincer,iwincer5a@statcounter.com,AR,-37.7912944,-58.8489331,2018-04-19T06:00:21Z
52686-313,Roxine Hearthfield,rhearthfield5b@omniture.com,UA,50.6548909,26.8652271,2017-10-29T07:39:46Z
55714-2220,Noell Spering,nspering5c@seesaa.net,PL,49.444308,19.9504449,2018-03-05T05:42:12Z
63824-481,Noelyn Patry,npatry5d@surveymonkey.com,NI,11.940477,-86.1878899,2017-11-23T02:20:25Z
0409-7810,Harriot Scorton,hscorton5e@issuu.com,SI,45.9974545,13.5270951,2018-09-12T02:27:25Z
37000-830,Penny Kleynen,pkleynen5f@fastcompany.com,ID,-10.0533,120.4839,2017-10-25T20:42:19Z
0378-2685,Tessy Egglestone,tegglestone5g@mashable.com,GR,39.40278,21.89472,2018-02-09T07:17:46Z
59898-800,Zahara Tiffin,ztiffin5h@intel.com,CN,31.221597,121.409352,2018-03-03T08:24:41Z
76125-667,Tremayne Bowling,tbowling5i@unblog.fr,TZ,-10.4,40.333333,2018-06-01T02:54:44Z
36987-3190,Eddie Edkins,eedkins5j@technorati.com,ID,-10.1748845,123.5714032,2018-05-31T19:35:31Z
59762-0009,Abie Pavyer,apavyer5k@businesswire.com,CL,-40.3313422,-72.9485366,2018-09-25T11:12:57Z
49726-024,Katinka Rive,krive5l@independent.co.uk,CN,38.371268,114.393598,2017-12-04T07:13:33Z
36987-2566,Dierdre Marryatt,dmarryatt5m@thetimes.co.uk,CN,30.565162,114.274759,2018-03-28T13:37:40Z
10157-9826,Gracie Edrich,gedrich5n@paypal.com,CN,42.223828,123.726035,2018-01-24T18:47:35Z
50580-895,Steffie Feldheim,sfeldheim5o@exblog.jp,CN,40.142128,94.661966,2017-12-30T22:04:14Z
48951-1074,Niki Haithwaite,nhaithwaite5p@amazon.co.jp,FR,50.7022235,3.1685214,2017-11-14T14:21:14Z
44911-0033,Nanete Grugerr,ngrugerr5q@slashdot.org,CN,23.321441,113.558655,2018-07-06T12:08:35Z
49348-443,Eleanor Woltering,ewoltering5r@soup.io,CN,45.6467048,122.8448203,2018-04-30T08:06:34Z
10544-111,Dagmar Symper,dsymper5s@example.com,CN,35.416734,119.526925,2018-05-12T05:26:26Z
0093-5506,Torre Euesden,teuesden5t@mit.edu,LA,19.4520843,103.1855702,2018-05-19T19:29:50Z
67345-0006,Skipp Crossland,scrossland5u@wiley.com,ID,-8.5068536,115.2624778,2018-02-03T03:14:24Z
0378-3012,Dell Redwood,dredwood5v@edublogs.org,MA,32.9340471,-5.661571,2018-02-12T04:34:55Z
0603-7625,Bertrando Tesche,btesche5w@delicious.com,RU,57.2567489,58.7326317,2017-10-30T20:35:42Z
51346-115,Stephine Barthot,sbarthot5x@cnbc.com,NP,26.7831243,85.2774207,2018-05-10T14:54:57Z
68151-0667,Rochelle Goldin,rgoldin5y@abc.net.au,RU,43.4795902,44.1393572,2017-12-28T23:07:46Z
55154-3528,Peggie Grzelak,pgrzelak5z@newsvine.com,CN,35.580555,100.761196,2018-08-10T15:24:07Z
0615-7644,Winni MacAndrew,wmacandrew60@nbcnews.com,ID,-6.956164,106.7714,2017-12-08T09:20:41Z
59762-0047,Mufinella Dixon,mdixon61@deliciousdays.com,BR,-6.7378881,-35.6860723,2018-09-25T06:56:32Z
68151-2987,Yancey Ellar,yellar62@loc.gov,ZA,-27.9699645,26.77027,2018-02-17T13:59:00Z
51335-001,Bernadine Bausmann,bbausmann63@dell.com,BR,-23.7981763,-48.5962748,2018-05-17T07:00:01Z
0143-9729,Brennen Wassung,bwassung64@earthlink.net,ID,-7.167974,108.5077307,2018-04-17T13:55:11Z
11822-0616,Patrizio Geram,pgeram65@hatena.ne.jp,RS,45.0485391,20.0808092,2018-08-14T19:11:35Z
60742-001,Betsey Vedekhov,bvedekhov66@canalblog.com,AM,40.4832736,44.3852966,2018-07-31T11:42:43Z
59779-015,Torrence Ianitti,tianitti67@shop-pro.jp,MX,19.4146406,-99.1395519,2018-07-19T23:07:01Z
51248-151,Tandie Stebbings,tstebbings68@weebly.com,ID,-8.4005782,113.7870822,2018-07-01T09:09:59Z
42507-477,Luca Benitti,lbenitti69@mysql.com,ZA,-27.2369945,28.8476254,2018-01-26T07:23:51Z
50268-788,Clay Charon,ccharon6a@earthlink.net,TH,16.0481202,105.1375908,2018-02-04T12:41:34Z
63255-010,Martguerita Portsmouth,mportsmouth6b@paginegialle.it,ID,-6.8586226,111.642224,2017-12-30T08:54:59Z
76347-120,Den Ferries,dferries6c@studiopress.com,TN,35.62231,10.75696,2018-04-13T12:48:15Z
55154-8298,Dael Ettridge,dettridge6d@gravatar.com,VN,12.5075773,108.3356312,2018-01-13T19:35:22Z
49288-0486,Jocelyn Severwright,jseverwright6e@e-recht24.de,CZ,49.6962064,12.5974678,2018-08-08T22:49:03Z
61589-1816,Townie Pacey,tpacey6f@diigo.com,TH,14.7013241,104.7885565,2018-08-09T15:06:28Z
62670-4828,Etty Ather,eather6g@smh.com.au,PH,13.9743478,121.6910432,2018-10-08T01:25:04Z
0143-9992,Elie Frances,efrances6h@time.com,ID,-6.766979,105.9053689,2018-08-23T18:52:41Z
41520-171,Cicely Szabo,cszabo6i@ca.gov,PH,12.3211354,122.6736631,2018-10-01T07:05:58Z
63323-282,Ker Buxcy,kbuxcy6j@fastcompany.com,PT,40.7339545,-7.8160659,2018-02-12T18:29:58Z
21695-353,Hadlee Cawdell,hcawdell6k@drupal.org,ID,-8.4779418,113.3704466,2018-02-07T08:44:13Z
58503-019,Godard Ragate,gragate6l@ihg.com,CN,34.73564,105.32632,2018-09-06T03:45:15Z
54868-6248,Lorraine Chastanet,lchastanet6m@abc.net.au,TL,-8.5568557,125.5603143,2018-01-06T21:03:21Z
12258-241,Tisha Gaunt,tgaunt6n@shop-pro.jp,RU,57.512722,72.40078,2018-05-09T05:33:21Z
36987-2300,Wolfy Walkley,wwalkley6o@privacy.gov.au,NO,59.9173309,10.8180311,2018-03-15T21:09:16Z
36800-520,Alanah Sullens,asullens6p@domainmarket.com,CN,29.912769,120.142352,2018-05-03T05:15:33Z
49884-322,Audre Potkins,apotkins6q@exblog.jp,KH,11.9924294,105.4645408,2018-01-12T20:44:55Z
51672-4151,Ransell Martinyuk,rmartinyuk6r@ehow.com,ID,-6.8897321,110.7480064,2018-05-26T17:28:33Z
59779-466,Gwendolin Caveill,gcaveill6s@over-blog.com,CZ,50.7056119,13.9301748,2017-11-05T06:02:38Z
52544-077,Aurelie Dukelow,adukelow6t@dmoz.org,SE,62.3926514,17.2942976,2018-06-08T12:55:46Z
42507-131,Lazare Le Brun,lle6u@nydailynews.com,CZ,49.0535092,16.8367681,2018-01-22T19:31:08Z
60505-0207,Joellyn Grocutt,jgrocutt6v@altervista.org,PH,12.2551576,122.0533593,2017-11-20T14:39:01Z
52125-495,Monica MacEvilly,mmacevilly6w@hao123.com,UA,49.0186498,26.3397803,2017-11-08T04:45:03Z
42411-020,Johnna Goodwins,jgoodwins6x@vinaora.com,BR,-23.4157731,-51.4264048,2018-05-16T04:10:59Z
43269-876,Alon Coltart,acoltart6y@wired.com,PK,35.863652,71.789345,2018-07-15T01:07:04Z
53808-0349,Eldridge Stead,estead6z@hud.gov,ET,10.1769828,38.1239492,2018-06-22T00:07:28Z
0054-0275,Mollie Sheridan,msheridan70@skyrock.com,CO,7.3423696,-76.5719414,2018-09-27T23:37:46Z
21695-873,Shelli Jedrasik,sjedrasik71@gizmodo.com,IE,35.7797381,-80.7087609,2018-01-03T01:45:31Z
64117-243,Cosimo Hurdwell,churdwell72@disqus.com,CN,32.561794,119.671018,2018-07-18T18:33:37Z
10167-600,Felicia Dimitru,fdimitru73@barnesandnoble.com,PF,-17.5278467,-149.5548753,2017-10-22T03:30:20Z
63148-140,Paolina D'Alesio,pdalesio74@mozilla.org,JP,34.8917477,138.1627422,2017-10-14T02:42:16Z
13537-337,Russell Iscowitz,riscowitz75@tuttocitta.it,RU,56.4428126,59.129251,2017-11-17T19:32:40Z
0187-5400,Sarene Trimbey,strimbey76@flickr.com,BR,-29.1051592,-54.8731219,2017-12-29T05:28:11Z
65862-620,Hermy Rasch,hrasch77@dion.ne.jp,RU,56.178249,37.902732,2018-01-12T21:04:38Z
30142-916,Helsa Fakes,hfakes78@blogtalkradio.com,KE,0.5695252,34.5583766,2018-07-04T12:59:39Z
51060-051,Fernanda Duignan,fduignan79@com.com,TH,13.7850134,100.4959857,2018-05-16T06:51:10Z
58479-003,Burnard Austick,baustick7a@nsw.gov.au,RU,44.574779,133.2798776,2017-10-31T15:06:07Z
62032-128,Stefania Whales,swhales7b@nhs.uk,AR,-39.103215,-67.0940101,2018-05-21T22:18:18Z
0781-1971,Leanna Willeson,lwilleson7c@youtu.be,ID,-7.5511508,111.6547689,2017-11-22T10:00:39Z
55315-809,Bobinette Pyer,bpyer7d@blogtalkradio.com,FI,60.1932037,24.9412435,2018-05-28T18:12:48Z
16590-381,Alleen Blennerhassett,ablennerhassett7e@free.fr,CN,28.165293,121.35142,2018-03-20T00:35:11Z
63347-511,Olenka Marney,omarney7f@boston.com,UA,46.6199321,32.7072675,2018-01-28T09:10:33Z
0168-0058,Lina McNally,lmcnally7g@jigsy.com,CN,35.256108,113.322332,2018-08-10T08:41:22Z
12634-502,Trudi Sirette,tsirette7h@tumblr.com,PH,9.7922,124.509,2018-04-28T13:57:03Z
54868-5365,Ethelin Bazeley,ebazeley7i@ucoz.ru,TZ,-8.2981893,31.5227266,2018-07-22T16:02:07Z
37000-154,Angele Espinheira,aespinheira7j@webmd.com,BA,44.3783113,18.3655679,2018-01-14T18:07:01Z
68703-055,Johnathon Manchester,jmanchester7k@adobe.com,ID,-7.0626852,107.0663524,2018-07-27T13:39:19Z
53808-0773,Brenden Dufton,bdufton7l@bravesites.com,PH,17.4458367,121.5250628,2018-07-28T00:46:08Z
60793-284,Steward Summerbell,ssummerbell7m@bigcartel.com,CN,22.879493,116.061522,2017-11-21T04:12:09Z
60505-3579,Anjela Skeete,askeete7n@springer.com,ID,-6.2057964,106.7057733,2018-06-24T01:57:47Z
50845-0151,Cornelius Clarkin,cclarkin7o@howstuffworks.com,FI,63.5272366,24.6581193,2018-07-18T07:52:26Z
67691-769,Ortensia Greatbatch,ogreatbatch7p@vistaprint.com,ET,6.300757,36.878471,2017-12-30T16:46:36Z
52069-103,Anastassia Cecchi,acecchi7q@nydailynews.com,ID,-7.9438473,113.8153425,2018-08-11T18:14:26Z
0075-2912,Jeno Issitt,jissitt7r@symantec.com,PH,14.632526,121.103,2018-03-27T09:21:11Z
58118-0011,Milly Coghill,mcoghill7s@fc2.com,CN,47.317308,123.9575311,2018-04-06T22:52:26Z
14783-886,Sally McKmurrie,smckmurrie7t@hibu.com,CO,10.1884029,-74.916397,2018-06-04T22:42:23Z
67046-302,Jarrett McCathay,jmccathay7u@shutterfly.com,TH,13.6332855,100.4958678,2018-01-20T00:23:48Z
68084-408,Horace Gillmor,hgillmor7v@accuweather.com,ID,-7.419676,107.66086,2017-12-19T19:27:02Z
49349-335,Kelley Openshaw,kopenshaw7w@quantcast.com,RU,55.0359955,61.3717568,2018-05-22T14:18:35Z
63629-4731,Tiff Zanetti,tzanetti7x@unc.edu,CN,34.341574,108.93977,2018-05-02T09:27:45Z
11822-5156,Myrwyn Milan,mmilan7y@naver.com,ID,-7.04383,106.82849,2018-09-13T15:40:24Z
55390-113,Maribeth Rollitt,mrollitt7z@cnn.com,CN,30.037192,121.154634,2017-11-04T16:40:46Z
63629-4556,Kristian Glede,kglede80@elpais.com,PL,53.0226508,20.4361149,2018-03-19T22:16:01Z
24236-656,Prue Silverthorn,psilverthorn81@cam.ac.uk,SV,14.326195,-89.4505802,2017-11-17T19:37:08Z
60512-2004,Leola Chapleo,lchapleo82@lycos.com,BR,-27.6856839,-48.7817857,2018-07-20T12:55:46Z
16714-633,Lawton Blackler,lblackler83@yahoo.com,FR,48.305818,4.024099,2018-05-25T07:56:08Z
49963-532,Lowrance Amor,lamor84@walmart.com,PT,41.7662205,-8.5065208,2018-02-10T02:40:55Z
36987-1589,Leonerd Ragate,lragate85@craigslist.org,AO,-15.1978317,12.1575544,2018-06-02T13:51:49Z
43319-050,Celestina Campaigne,ccampaigne86@domainmarket.com,CN,25.797931,110.011238,2017-11-18T14:52:28Z
42808-399,Codie Ayliffe,cayliffe87@ed.gov,MK,40.9141247,20.7427213,2018-10-05T18:56:58Z
51346-095,Holt Raveau,hraveau88@wufoo.com,ID,-7.7285206,110.7897275,2018-07-27T22:05:18Z
52125-690,Dionne Guerrieri,dguerrieri89@mysql.com,ZM,-13.7145854,26.2304616,2017-11-30T13:32:21Z
59735-314,Stefano Lethieulier,slethieulier8a@discuz.net,SL,8.636758,-11.4722494,2018-05-23T05:23:07Z
0781-2202,Darlene Tocque,dtocque8b@oakley.com,BR,-19.6499319,-45.2243578,2017-12-11T03:34:42Z
62106-003,Ruthi Nuttall,rnuttall8c@list-manage.com,AR,-26.68532,-60.7292,2018-03-23T09:30:01Z
10742-8682,Niven Blyth,nblyth8d@tumblr.com,PS,32.231566,35.214616,2018-04-21T08:45:35Z
0273-7002,Beauregard Gontier,bgontier8e@google.es,CN,36.837625,112.864561,2018-01-18T01:25:29Z
36987-3337,Linn Shrubb,lshrubb8f@technorati.com,PH,14.7559236,121.0832459,2017-11-03T05:28:53Z
98132-732,Marcy Alven,malven8g@ibm.com,CN,28.179427,121.216559,2017-12-13T12:36:04Z
42192-147,Kandace Vines,kvines8h@alexa.com,CN,25.152278,104.241546,2018-07-31T20:19:28Z
55111-163,Mariya Shawcross,mshawcross8i@trellian.com,PL,50.085781,18.5296459,2018-07-30T06:31:06Z
11410-408,Aurelie Sigg,asigg8j@chicagotribune.com,CN,29.893672,110.346166,2018-04-17T15:09:39Z
0781-7244,Perry Denizet,pdenizet8k@diigo.com,CA,49.2849107,-122.8677562,2017-12-19T10:15:12Z
54868-0077,Alidia Atchly,aatchly8l@umich.edu,CN,29.654838,91.140552,2018-06-16T18:06:28Z
50563-164,Danica Stoodley,dstoodley8m@homestead.com,CN,28.285697,112.251062,2017-10-23T17:15:04Z
64980-140,Fabien Burrow,fburrow8n@pbs.org,PT,38.09234,-8.204915,2018-08-04T23:44:49Z
16571-430,Albertine Leggott,aleggott8o@seesaa.net,CA,46.0466966,-71.0768076,2018-07-20T01:23:03Z
15127-332,Hewitt Uglow,huglow8p@nationalgeographic.com,PH,16.487885,121.159718,2018-04-21T18:01:03Z
57344-160,Keven Grisedale,kgrisedale8q@techcrunch.com,CO,10.5289556,-73.7242486,2018-03-08T21:08:01Z
53603-1006,Frannie Bauldry,fbauldry8r@nyu.edu,CN,23.0706415,112.4852219,2017-11-30T18:10:41Z
0409-2552,Ailyn Wildin,awildin8s@google.com.br,ID,-7.0453161,108.3311815,2018-03-20T20:11:34Z
53345-020,Lotti McKeaney,lmckeaney8t@bloglines.com,CZ,50.7911439,15.0266516,2017-12-10T17:02:38Z
0009-5093,Eadith Pail,epail8u@omniture.com,CN,29.051304,111.546653,2017-12-19T06:28:11Z
43846-0005,Noak Wison,nwison8v@blogger.com,ID,-6.148922,106.191761,2017-10-18T13:34:47Z
68382-701,Eleanor Brosius,ebrosius8w@globo.com,HR,45.6128697,15.4778574,2018-04-06T12:14:18Z
50383-042,Brooke Seppey,bseppey8x@census.gov,LV,56.673312,22.574388,2018-08-20T07:52:56Z
57627-169,Isobel Fairbanks,ifairbanks8y@usda.gov,AF,34.8438311,69.1543939,2018-03-12T06:51:53Z
51730-0001,Dalila Strand,dstrand8z@sitemeter.com,PE,-17.0759571,-70.8432115,2017-11-12T04:25:47Z
57520-0221,Anatole De Ambrosis,ade90@istockphoto.com,DE,47.9963155,7.8107621,2018-04-28T15:31:31Z
54868-6232,Iago McCalum,imccalum91@naver.com,TH,14.1060399,101.3470213,2018-01-24T05:21:57Z
52533-124,Darrel Folca,dfolca92@msu.edu,JP,37.7816743,140.9664638,2018-05-04T01:41:12Z
0942-6457,Sibelle Guierre,sguierre93@pinterest.com,UA,49.660465,32.3448813,2017-10-14T15:27:43Z
34690-7001,Papageno Jubb,pjubb94@ycombinator.com,MA,35.1612182,-5.2632201,2017-10-25T13:48:29Z
30142-799,Ansel Classen,aclassen95@opera.com,US,30.9252192,-83.2291862,2018-05-22T02:43:06Z
59316-104,Marcellina Sapson,msapson96@yellowbook.com,FR,45.2977605,2.5135985,2017-10-15T06:15:59Z
55289-694,Liane Biesinger,lbiesinger97@a8.net,US,34.0578814,-118.3096648,2018-01-25T04:01:24Z
54868-6320,Theadora Barg,tbarg98@tumblr.com,UA,48.9181905,33.3541538,2018-10-04T22:31:36Z
0363-0856,Cully Ganing,cganing99@bbb.org,SE,57.7947889,13.4205162,2018-01-12T16:55:59Z
41595-5526,Gwyn Norris,gnorris9a@geocities.jp,BG,43.0892761,25.5163421,2017-10-27T10:33:30Z
0264-7800,Annadiana Ive,aive9b@ucla.edu,CN,32.387233,81.145433,2017-12-07T04:49:14Z
21695-871,Annabelle Paur,apaur9c@infoseek.co.jp,NA,-20.5907049,17.4588131,2018-10-09T17:30:30Z
58404-001,Kimberli Tupman,ktupman9d@omniture.com,CN,40.6238989,122.5200228,2018-09-12T00:08:51Z
51991-316,Minne Emeney,memeney9e@cargocollective.com,AF,34.55,70.55,2018-04-28T03:58:10Z
0781-5641,Dalenna Flaune,dflaune9f@constantcontact.com,CN,25.578207,106.021015,2017-12-14T20:02:15Z
76088-300,Josephine Camplen,jcamplen9g@blog.com,GR,41.0828211,24.1908648,2018-05-30T11:32:31Z
37000-414,Jacobo Keaveny,jkeaveny9h@nih.gov,ID,-6.7279241,111.3396498,2018-05-11T14:23:18Z
65162-468,Ula Mathely,umathely9i@uiuc.edu,JP,36.5389716,136.6033466,2018-02-17T12:43:33Z
0904-5795,Aubry Godby,agodby9j@ihg.com,RS,43.1406976,20.5213617,2018-06-24T04:51:54Z
0245-0882,Barbra Benian,bbenian9k@nps.gov,RS,45.0244716,20.056916,2018-06-13T14:15:26Z
49817-0071,Brana Munford,bmunford9l@angelfire.com,PL,54.236292,20.1285899,2018-07-19T05:59:55Z
46123-012,Callida Heningam,cheningam9m@google.it,PH,10.4373128,121.9944005,2018-02-24T20:01:35Z
63777-209,Isak Scotchmor,iscotchmor9n@hc360.com,MA,31.8127435,-9.3381766,2017-12-23T10:02:55Z
41167-0470,Teddy Fritschel,tfritschel9o@ning.com,CN,21.9588282,96.0891032,2018-04-05T18:09:52Z
0126-0135,Electra Slyde,eslyde9p@squarespace.com,ID,-7.0309341,107.4035157,2017-11-25T07:21:29Z
55910-541,Ilene Jeune,ijeune9q@mac.com,ID,-9.821088,124.4031833,2018-06-18T21:59:08Z
76318-334,Hadrian Girault,hgirault9r@tuttocitta.it,BR,-15.8146532,-47.9029793,2018-05-01T18:48:19Z
42254-237,Emerson MacDuff,emacduff9s@narod.ru,CN,33.347316,120.16366,2018-02-23T08:12:51Z
63029-903,Conny Lockart,clockart9t@mozilla.org,BT,26.966667,89.3833329,2017-11-12T14:03:59Z
52920-122,Fredia Waylett,fwaylett9u@techcrunch.com,HT,18.2382167,-72.0690372,2018-02-03T18:43:23Z
0310-0412,Daron MacAloren,dmacaloren9v@cam.ac.uk,CN,38.308683,101.588353,2018-02-02T14:11:51Z
61589-6503,Collette Brenstuhl,cbrenstuhl9w@arizona.edu,LV,56.9496487,24.1051865,2018-06-09T01:35:55Z
0131-2478,Monty Godspede,mgodspede9x@washingtonpost.com,PL,51.9204659,15.1155372,2018-05-07T17:06:01Z
0409-4350,Pavel Hanfrey,phanfrey9y@netvibes.com,US,64.8377778,-147.7163888,2018-02-26T04:16:16Z
50980-682,Daphene Shiel,dshiel9z@g.co,CN,31.85932,105.754223,2018-01-23T07:40:08Z
36987-1359,Anissa Badder,abaddera0@merriam-webster.com,EG,27.2674027,31.151928,2018-09-08T06:13:58Z
42507-328,Rhodie Milier,rmiliera1@nps.gov,NG,11.3882479,10.1972975,2018-02-16T09:26:19Z
0115-3911,Cory Nijssen,cnijssena2@amazonaws.com,ID,-8.1135472,112.3367573,2018-09-12T05:03:55Z
36987-1133,Rikki Clements,rclementsa3@ameblo.jp,BG,42.61667,25.4,2018-04-08T04:20:14Z
60505-0135,Krystal Norfolk,knorfolka4@nationalgeographic.com,HN,14.5874782,-88.5831026,2018-02-02T11:34:29Z
68828-128,Doralia Spennock,dspennocka5@hhs.gov,CN,23.477539,116.013047,2018-04-16T16:43:19Z
0363-0556,Callie Ascroft,cascrofta6@mac.com,ZA,-26.3448416,28.3622933,2018-09-05T05:48:22Z
31645-129,Ulla Eakin,ueakina7@engadget.com,ID,-6.9277361,106.9299579,2018-08-02T02:30:44Z
52374-101,Jeni Andreia,jandreiaa8@topsy.com,PL,51.669945,16.5376529,2018-08-12T04:55:56Z
62000-321,Aarika Dobbinson,adobbinsona9@pagesperso-orange.fr,ID,-6.8510505,108.0806141,2018-06-28T15:47:05Z
55154-2708,Krissie Halligan,khalliganaa@woothemes.com,CD,-1.0756073,17.1602683,2018-08-29T11:08:58Z
0603-2582,Alden Newing,anewingab@slideshare.net,FR,48.3006708,4.0710348,2017-12-16T01:58:08Z
0904-6124,Constancia Kelle,ckelleac@arstechnica.com,CO,7.3988718,-73.052334,2017-11-17T08:01:07Z
64809-105,Bertrand Chung,bchungad@cargocollective.com,VN,13.7983338,107.6866471,2018-09-06T02:07:16Z
60505-2916,Angelo Tytler,atytlerae@mac.com,ID,-9.8625,119.8963,2018-03-05T04:19:54Z
34645-4025,Paxon Bagby,pbagbyaf@freewebs.com,SE,47.0203207,-68.1435046,2018-09-08T02:43:25Z
46414-3333,Pennie Yandle,pyandleag@si.edu,RU,55.7359757,60.538576,2018-05-07T13:37:39Z
43269-846,Afton Ceccoli,aceccoliah@seesaa.net,CN,27.415632,118.347831,2018-06-10T09:08:36Z
44911-0118,Malina Skeete,mskeeteai@seesaa.net,PL,54.4122067,18.4916795,2018-04-17T05:31:13Z
49778-004,Lewes Servante,lservanteaj@vinaora.com,AM,40.8428562,43.7557983,2017-12-17T14:33:17Z
57955-1260,Ninon Cullagh,ncullaghak@guardian.co.uk,FR,48.0381485,-3.7612141,2018-08-04T09:16:05Z
0378-8170,Sim Gowrich,sgowrichal@fema.gov,FR,49.116169,6.1807997,2018-01-10T02:43:37Z
64942-1320,Johnathon Westcot,jwestcotam@1und1.de,BD,24.9689194,89.0076739,2018-05-08T04:20:59Z
62721-0214,Frankie Stallion,fstallionan@delicious.com,ID,-5.3331186,104.9856176,2018-06-01T01:55:17Z
41250-817,Dulcy Dechelette,ddecheletteao@altervista.org,GR,40.5885408,23.0279289,2017-11-30T12:01:01Z
60429-348,Isidoro Messam,imessamap@pinterest.com,MA,32.7668648,-7.5057737,2018-05-16T10:39:10Z
53345-013,Sharron Laidel,slaidelaq@alexa.com,PH,7.3517838,122.2833466,2017-11-05T08:08:27Z
0713-0536,Carlyle Priestman,cpriestmanar@imdb.com,PK,27.9687584,68.6404324,2017-11-01T11:12:50Z
54868-1338,Simone Le-Good,slegoodas@chicagotribune.com,CN,21.48402,109.10459,2018-01-26T20:24:37Z
66479-592,Gideon Arson,garsonat@macromedia.com,HR,45.2646668,14.5795071,2018-04-14T15:48:05Z
53808-0813,Fran Vasilyev,fvasilyevau@joomla.org,CN,28.2412186,112.9513185,2018-06-28T14:20:27Z
50268-265,Misti Insley,minsleyav@columbia.edu,RU,59.8452242,60.7235532,2018-05-21T14:53:51Z
21695-855,Gweneth Ailmer,gailmeraw@howstuffworks.com,RU,56.2533676,43.1585921,2018-08-26T04:12:41Z
65044-0614,Binny Kohn,bkohnax@domainmarket.com,CN,35.604025,110.983333,2018-05-27T13:24:14Z
40046-0069,Mikel Foulsham,mfoulshamay@telegraph.co.uk,TH,18.7915629,100.7832784,2018-04-16T16:55:32Z
49614-131,Paulo Limerick,plimerickaz@flickr.com,US,39.0105228,-95.6931356,2018-07-05T03:47:47Z
42858-804,Peterus Cutridge,pcutridgeb0@ow.ly,SE,59.8425242,17.5656915,2018-06-18T07:24:50Z
55154-5688,Dorri Hanretty,dhanrettyb1@netvibes.com,PH,10.4228104,122.9137477,2018-09-08T12:28:02Z
64578-0107,Babita Leebetter,bleebetterb2@prlog.org,MX,17.9567646,-102.1943485,2018-08-13T05:01:56Z
43742-0009,Penn Hannigan,phanniganb3@diigo.com,US,30.7,-88.11,2018-08-30T07:54:54Z
43857-0008,Ike Klimshuk,iklimshukb4@cisco.com,CN,23.401553,114.59862,2017-12-13T08:49:49Z
61657-0958,Lynn Muress,lmuressb5@go.com,SE,59.3326658,18.056792,2017-12-27T12:37:00Z
44118-809,Thorin Winterbourne,twinterbourneb6@adobe.com,GB,51.5136143,-0.1365486,2018-02-15T04:16:51Z
63629-1413,Chandra Mishaw,cmishawb7@bizjournals.com,ID,-8.0925,111.9417,2017-10-14T21:13:42Z
62600-100,Jeno Barnard,jbarnardb8@godaddy.com,BR,-20.6974477,-48.1597946,2018-04-10T18:52:18Z
66579-0014,Leonerd Grainger,lgraingerb9@europa.eu,MY,5.83864,118.116958,2018-07-13T07:45:37Z
43742-0486,Tibold Loughlan,tloughlanba@studiopress.com,RU,44.2551686,135.0572606,2018-01-31T05:58:40Z
54868-3155,Coreen Huffadine,chuffadinebb@mlb.com,BR,-28.4262462,-54.9171412,2017-11-07T03:19:49Z
0517-5704,Liane Rawe,lrawebc@chronoengine.com,CN,37.504829,115.720864,2018-05-28T22:07:58Z
52268-147,Lyn Westcott,lwestcottbd@technorati.com,CN,47.1666507,8.2894205,2018-03-11T09:25:59Z
50436-3840,Randy Kemmish,rkemmishbe@tripod.com,AR,-34.6503449,-58.5581402,2017-11-08T15:43:28Z
47335-290,Friedrick Dwyr,fdwyrbf@ning.com,CL,-39.2820124,-72.2307798,2017-11-11T21:20:42Z
49281-489,Oliver Kmietsch,okmietschbg@exblog.jp,NG,5.5543995,5.7932008,2018-09-14T04:57:35Z
55154-5079,Roth See,rseebh@ucoz.com,MY,3.1523104,101.7178316,2018-05-19T23:26:06Z
43538-501,Florri Maggill'Andreis,fmaggillandreisbi@wunderground.com,RU,54.9790861,37.2249417,2017-10-21T11:17:17Z
50845-0177,Emili Matuska,ematuskabj@chron.com,CN,39.9416682,116.3958807,2018-01-15T12:52:02Z
64980-185,Ellswerth Seckington,eseckingtonbk@ovh.net,ID,-8.5167606,123.385081,2018-07-23T03:21:59Z
0472-0829,Cherri Thorold,cthoroldbl@sourceforge.net,PH,8.490877,124.345771,2018-09-28T19:15:00Z
60429-040,Willey Bradbrook,wbradbrookbm@hugedomains.com,TT,10.1986882,-61.4377107,2018-08-05T07:28:27Z
58370-2001,Kendricks Toolin,ktoolinbn@twitter.com,PH,14.5659717,121.0108932,2018-09-01T16:07:39Z
55154-6995,Bart Crisford,bcrisfordbo@yale.edu,SE,59.6037789,16.5289486,2017-10-11T23:03:41Z
58411-179,Rae Flicker,rflickerbp@cbsnews.com,AM,40.06165,43.9852874,2018-08-31T06:20:24Z
55301-393,Garnette La Vigne,glabq@blogspot.com,CN,35.490701,112.851831,2018-07-29T14:44:45Z
58118-2958,Teodora Spykins,tspykinsbr@a8.net,JP,33.6450129,133.4789243,2017-11-19T09:56:31Z
68788-9020,Ofilia Brandt,obrandtbs@nbcnews.com,UA,48.376687,25.7504481,2018-07-31T09:41:45Z
10742-8361,Stafani Varney,svarneybt@archive.org,RU,56.3153167,48.2506985,2018-02-04T09:46:13Z
55154-5494,Mamie Jest,mjestbu@sphinn.com,PL,54.2139021,21.5226322,2018-10-04T23:09:31Z
51655-535,Nert Michael,nmichaelbv@1und1.de,PH,10.3307399,123.8822107,2018-07-12T12:22:43Z
37000-380,Norby Bonsale,nbonsalebw@netvibes.com,MD,47.7820865,27.930686,2018-07-01T21:34:10Z
41520-522,Marley Faldo,mfaldobx@huffingtonpost.com,CN,37.535809,121.386029,2018-01-19T03:10:35Z
0245-0136,Morrie Crat,mcratby@deliciousdays.com,ID,-9.6759995,123.9136675,2018-05-09T12:26:13Z
42507-751,Brittne Trail,btrailbz@homestead.com,TH,17.0187975,103.2432632,2018-09-16T11:09:54Z
0363-9021,Ruy Arnowitz,rarnowitzc0@yahoo.co.jp,US,38.9,-77.04,2017-12-11T11:55:22Z
66780-226,Mord Killeen,mkilleenc1@mapquest.com,CA,44.3710708,-64.5210039,2018-10-08T17:20:29Z
55111-530,Alla De la Perrelle,adec2@marriott.com,VE,8.9679001,-71.2740573,2017-11-28T05:55:58Z
58980-915,Phillip Jaspar,pjasparc3@instagram.com,JP,32.5171226,130.6026459,2018-05-25T16:51:03Z
43269-865,Hurley Gilphillan,hgilphillanc4@wufoo.com,CN,31.839141,103.732815,2018-06-02T01:24:44Z
51628-3535,Meier Lowton,mlowtonc5@webnode.com,RU,53.0852774,82.3454181,2018-03-24T18:35:54Z
36987-2945,Marris Axby,maxbyc6@ifeng.com,CN,31.123586,114.893666,2017-11-05T02:41:58Z
10889-102,Bondie Dmitrienko,bdmitrienkoc7@cbsnews.com,CN,28.704586,113.584985,2017-10-28T21:54:55Z
59427-706,Rodolph Shadfourth,rshadfourthc8@4shared.com,PL,52.9490114,22.9564233,2018-01-26T23:51:46Z
52099-8000,Cindi Harlett,charlettc9@mit.edu,PT,38.7777943,-9.2518104,2018-07-21T01:43:10Z
55154-1489,Elisha Harling,eharlingca@cocolog-nifty.com,CN,26.422277,112.859759,2018-09-05T20:35:08Z
36987-3067,Dee dee Bitchener,ddeecb@wordpress.org,TZ,-3.097,34.108189,2018-08-19T11:16:55Z
49884-306,Chip Bruna,cbrunacc@ebay.com,ID,-7.1477523,109.9854145,2017-10-14T02:32:31Z
67544-891,Kaia Porte,kportecd@mozilla.org,SE,56.7115456,16.3569786,2018-04-22T07:50:32Z
0378-3505,Reeta Sparway,rsparwayce@oaic.gov.au,CN,35.054002,103.133562,2017-11-13T13:41:53Z
59779-078,Celina Stuehmeier,cstuehmeiercf@goo.gl,PL,51.6919243,21.5535126,2018-08-25T10:40:14Z
0409-7922,Philippe Blazynski,pblazynskicg@boston.com,SL,9.5844123,-11.5589105,2018-01-14T15:20:06Z
0074-3287,Elnora Blees,ebleesch@hatena.ne.jp,CN,25.570888,111.945844,2018-03-03T23:02:02Z
69000-012,Hazel Matveichev,hmatveichevci@sfgate.com,AF,36.1560347,68.0477509,2017-10-19T17:01:55Z
0781-5051,Shannah Maccaddie,smaccaddiecj@theglobeandmail.com,CN,39.377733,99.819316,2017-10-31T19:30:38Z
41163-236,Fredia McClymont,fmcclymontck@yandex.ru,ID,1.657944,125.090922,2018-02-08T22:52:25Z
48433-306,Thelma Oliphant,toliphantcl@1und1.de,GR,35.2970392,25.0182231,2017-12-16T07:10:31Z
65121-711,Uriel Darthe,udarthecm@instagram.com,CN,30.233195,121.329456,2018-01-15T18:14:48Z
64942-1101,Brady Withrop,bwithropcn@barnesandnoble.com,FI,60.4624232,23.5496765,2018-04-15T21:09:04Z
63824-309,Brittani Costar,bcostarco@reverbnation.com,JP,34.88333,136.98333,2018-06-04T18:15:04Z
50730-8308,Bertina Jarnell,bjarnellcp@chicagotribune.com,ID,-6.2060317,105.9670501,2018-04-02T04:53:29Z
49817-0069,Perceval Theodore,ptheodorecq@ow.ly,CO,4.9428987,-76.0285737,2018-07-22T17:21:12Z
68788-9397,Licha Healks,lhealkscr@github.com,CN,30.037192,121.154634,2017-10-19T21:18:48Z
54868-5801,Ignace Dow,idowcs@xrea.com,CN,29.402881,109.927743,2018-08-12T08:59:33Z
41167-1603,Timoteo Bending,tbendingct@amazon.com,LU,49.8278894,6.0058975,2017-12-01T20:20:37Z
49967-593,Giavani Kamenar,gkamenarcu@yandex.ru,CN,42.735656,121.8107,2017-10-16T22:58:46Z
49348-834,Carmelle Rowlett,crowlettcv@thetimes.co.uk,FR,43.4945737,5.8978018,2018-06-10T02:43:01Z
63629-5223,Zed Jeavon,zjeavoncw@gov.uk,FR,44.1372925,4.810107,2018-04-25T21:34:56Z
55319-532,Dante Edward,dedwardcx@woothemes.com,BO,-20.1337772,-67.4891345,2018-03-04T06:23:28Z
64896-671,Sheeree Creevy,screevycy@intel.com,ID,-7.0215218,112.4798088,2018-03-30T08:14:36Z
61786-000,Denny Cafe,dcafecz@epa.gov,TZ,-3.5837638,30.7177509,2017-12-12T21:39:28Z
61657-0101,Maxi Corradeschi,mcorradeschid0@prnewswire.com,ID,-7.072846,112.906475,2017-12-14T10:17:31Z
0075-2451,Josey Davitashvili,jdavitashvilid1@oakley.com,US,29.9246825,-90.0163544,2018-06-16T15:01:07Z
0067-6130,Edeline Tutsell,etutselld2@t-online.de,ID,-4.4375425,102.9090191,2018-05-26T13:10:54Z
22431-130,Royall Batrick,rbatrickd3@sina.com.cn,VN,21.3026143,105.3014109,2018-02-21T00:16:28Z
55154-6629,Brook Grivori,bgrivorid4@harvard.edu,IE,52.665267,-6.308522,2018-08-17T15:16:15Z
63874-607,Antoine Foldes,afoldesd5@example.com,PL,50.1242949,19.8106779,2018-02-20T05:09:34Z
0067-6348,Sharlene Binstead,sbinsteadd6@go.com,CZ,49.5372506,16.8773821,2018-08-31T16:12:13Z
0615-7704,Jean Blondell,jblondelld7@census.gov,CN,33.258244,115.374821,2018-04-11T20:53:51Z
16590-870,Miguela Sawdon,msawdond8@cafepress.com,CN,25.570888,111.945844,2018-01-19T15:07:33Z
37000-911,Andris Bales,abalesd9@51.la,CN,30.572815,104.066801,2017-11-12T17:04:34Z
55910-013,Grantham Revie,grevieda@cmu.edu,BR,-28.8455312,-51.8913473,2017-12-07T07:01:20Z
68001-143,Pepito Whaley,pwhaleydb@wikispaces.com,BH,26.1256441,50.4980362,2017-10-13T17:59:48Z
59535-5401,Durante Valentin,dvalentindc@creativecommons.org,BR,-23.7130018,-46.4140801,2018-01-22T20:40:28Z
65734-103,Edmund Welbrock,ewelbrockdd@wunderground.com,FR,49.0301146,2.2509675,2017-12-31T07:26:08Z
52584-882,Wynn Steels,wsteelsde@free.fr,ID,-5.4736254,104.6471221,2018-07-12T20:18:09Z
64117-988,Emili McClure,emccluredf@cocolog-nifty.com,BR,-15.2634934,-58.143739,2017-11-12T14:32:53Z
68462-127,Meggi McCarry,mmccarrydg@alexa.com,PL,51.669945,16.5376529,2018-02-14T14:38:48Z
49035-221,Sergeant Stollberger,sstollbergerdh@symantec.com,RU,57.0473862,65.7110972,2018-06-13T22:01:45Z
76354-018,Joy Ritch,jritchdi@storify.com,VN,22.6659838,104.262851,2018-06-02T04:31:55Z
0078-0527,Pepillo MacElane,pmacelanedj@nih.gov,PH,14.628828,121.1217909,2018-06-06T02:36:28Z
59011-460,Maxi Doggrell,mdoggrelldk@time.com,TH,19.9252706,99.8625116,2018-07-04T18:16:43Z
52125-598,Wilmer Toseland,wtoselanddl@netlog.com,AO,-6.2694214,14.2337805,2018-08-13T23:29:47Z
49288-0729,Cassey Agron,cagrondm@europa.eu,PL,52.339987,20.3286222,2018-08-16T06:46:59Z
51850-002,Crystie Thornewell,cthornewelldn@arstechnica.com,SD,18.052469,30.94981,2018-04-21T16:02:04Z
0093-3122,Xavier Caswall,xcaswalldo@amazon.com,KP,40.32306,128.65528,2018-03-14T03:56:15Z
0093-5269,Ronny Killeley,rkilleleydp@homestead.com,MM,19.5889431,96.2595008,2018-07-09T23:10:08Z
16590-488,Killian Sissot,ksissotdq@sogou.com,ID,-6.86277,109.6222698,2018-07-29T16:45:39Z
63941-007,Arlana McCrachen,amccrachendr@tinyurl.com,TZ,-6.4456338,38.898941,2018-01-05T02:25:51Z
52685-339,Reamonn Dibdall,rdibdallds@wired.com,PH,14.4712676,121.0441201,2018-04-04T11:18:05Z
43269-843,Jada Sheed,jsheeddt@apache.org,SE,65.3418445,21.1427073,2018-08-25T20:10:46Z
53808-0341,Brenn Flag,bflagdu@cnet.com,ID,-8.5693,116.6242,2018-04-28T19:56:50Z
62839-1083,Dorelle Quilliam,dquilliamdv@indiatimes.com,IR,35.6891975,51.3889736,2018-03-02T14:26:40Z
55264-020,Gail Keuning,gkeuningdw@histats.com,PH,10.5955,124.7663,2018-01-30T15:49:55Z
52686-259,Anallise Helsdon,ahelsdondx@tamu.edu,TW,24.4320647,118.3155101,2018-02-11T05:31:50Z
60505-2552,Alfonso Bramah,abramahdy@redcross.org,US,43.1095503,-88.0411993,2018-08-19T13:04:43Z
68382-052,Allina Malimoe,amalimoedz@vinaora.com,ID,-7.5201771,109.2638245,2018-08-09T08:09:55Z
59011-410,Germain McJarrow,gmcjarrowe0@si.edu,ID,-6.7796462,107.9276672,2018-09-06T13:05:30Z
53943-721,Susanetta Lowin,slowine1@google.pl,RU,54.6001467,52.4387134,2018-10-03T20:40:46Z
51079-024,Adaline Lohde,alohdee2@imageshack.us,PL,49.830017,21.14379,2018-05-03T12:52:38Z
57520-0235,Coriss Nightingale,cnightingalee3@umn.edu,CN,24.9936281,121.3009798,2018-03-13T16:38:12Z
59779-648,Vite Merveille,vmerveillee4@earthlink.net,CN,39.942418,116.725642,2017-12-26T13:49:49Z
60512-6452,Duffie Southway,dsouthwaye5@unesco.org,ID,-7.0549395,107.6451458,2018-03-11T19:52:32Z
51991-629,Kinnie Mousley,kmousleye6@jugem.jp,CN,29.020827,110.637506,2018-06-15T21:04:30Z
36987-2450,Ali Pinwell,apinwelle7@auda.org.au,SY,36.56253,36.73828,2018-06-20T04:20:14Z
52125-397,Cassie Howick,chowicke8@nbcnews.com,RU,55.7184184,39.7362416,2017-12-12T14:19:53Z
42549-548,Cati Shanks,cshankse9@1688.com,CN,31.491169,120.31191,2018-07-26T18:12:55Z
51143-545,Kristin Widdecombe,kwiddecombeea@loc.gov,PH,14.960458,120.755354,2018-05-17T18:38:26Z
21695-048,Nester Damper,ndampereb@freewebs.com,RU,52.6225919,90.0794098,2018-01-14T10:30:40Z
10544-606,Linnell Durtnell,ldurtnellec@hao123.com,JP,37.5574184,139.853551,2018-07-24T05:51:45Z
0179-0095,Taffy Brattan,tbrattaned@smugmug.com,XK,42.9107754,21.1956273,2018-08-17T06:19:40Z
49349-952,Janice Recher,jrecheree@intel.com,ZA,-28.5393727,25.2126293,2018-10-04T09:04:26Z
10812-536,Tymon McKimmey,tmckimmeyef@ucoz.com,ID,-7.1486683,108.002075,2018-05-02T18:43:27Z
42254-103,Krisha Maymond,kmaymondeg@fema.gov,PH,8.972681,125.408732,2018-01-11T00:57:39Z
60505-2597,Raimundo Grazier,rgraziereh@state.gov,SI,46.1659122,14.5719694,2017-10-13T14:46:08Z
58876-108,Alard Hunnisett,ahunnisettei@vk.com,BR,-11.3801768,-40.0068953,2017-11-20T03:21:03Z
0069-0121,Sig Castille,scastilleej@taobao.com,BJ,6.76667,2.16667,2017-11-14T20:09:28Z
64942-1338,Neely Beecheno,nbeechenoek@opera.com,PH,11.25111,125.00639,2018-07-14T20:44:38Z
68745-2021,Eleanore Totterdell,etotterdellel@answers.com,ID,-0.134137,130.9485906,2018-08-22T23:54:53Z
45802-978,Trent Pointer,tpointerem@moonfruit.com,CM,4.682198,9.3215345,2017-12-07T08:11:08Z
10191-1989,Jackson Bawcock,jbawcocken@multiply.com,LR,6.446976,-10.6182477,2018-01-07T04:11:46Z
0185-0615,Lesya Binge,lbingeeo@mit.edu,PH,8.5052219,125.9753765,2018-09-04T03:00:08Z
13107-045,Ozzie Stothard,ostothardep@plala.or.jp,PE,-12.3446835,-75.8704611,2018-09-05T00:55:44Z
10544-215,Johannes Du Hamel,jdueq@yahoo.com,ID,1.5594449,101.0146187,2018-04-21T17:10:17Z
55154-5067,Francesca Ferrini,fferrinier@usatoday.com,PS,31.52057,34.97442,2018-02-21T09:32:59Z
0703-4156,Lottie Swafield,lswafieldes@utexas.edu,CN,27.6616992,120.5610519,2018-08-16T08:35:08Z
0713-0623,Ado De Roeck,adeet@youtube.com,PH,9.939624,126.065213,2018-03-06T08:26:28Z
59021-011,Genvieve Pineaux,gpineauxeu@twitter.com,CH,47.49476,8.740263,2017-10-19T15:11:12Z
25225-020,Selie Whitlow,swhitlowev@nih.gov,PT,41.350131,-8.294276,2018-06-13T13:58:21Z
33992-1418,Dilly Gatus,dgatusew@yolasite.com,RU,53.9559626,38.2899306,2018-01-23T09:26:53Z
51991-728,Nomi Winspar,nwinsparex@webeden.co.uk,ID,0.0925393,109.2891005,2017-12-08T19:09:22Z
11523-7243,Marco Chettoe,mchettoeey@chron.com,PH,14.7596318,121.0589081,2017-11-08T17:28:44Z
58274-006,Tessa Rispin,trispinez@sfgate.com,CO,3.095417,-76.1435915,2018-03-16T12:58:45Z
0187-3750,Missy Kilgallon,mkilgallonf0@nbcnews.com,ID,-7.1552009,108.3178328,2018-01-24T21:29:22Z
50419-455,Lamond Madden,lmaddenf1@uol.com.br,FI,60.5201867,23.2169967,2018-08-03T07:33:59Z
24236-292,Fonz Pavel,fpavelf2@a8.net,ID,-6.2956209,106.6173415,2017-11-11T14:13:32Z
52125-534,Dorine Welton,dweltonf3@noaa.gov,CN,25.48385,100.550945,2018-05-20T14:56:05Z
42254-230,Othella Boshell,oboshellf4@vinaora.com,CN,26.201227,105.480028,2017-10-15T18:22:29Z
0093-5105,Cassy Jowers,cjowersf5@rediff.com,CN,36.5995041,117.0361834,2018-06-11T23:30:51Z
59779-179,Miof mela Cowely,mmelaf6@ocn.ne.jp,VN,20.5476734,105.9347384,2018-06-02T09:20:39Z
47593-416,Ara Welsby,awelsbyf7@elpais.com,CN,36.854929,114.503339,2018-09-12T12:58:48Z
0268-0013,Elisabeth Cloughton,ecloughtonf8@51.la,ID,-7.0549155,108.0261901,2018-06-08T20:43:57Z
55154-9442,Tripp Ivanchenkov,tivanchenkovf9@si.edu,PT,38.6319438,-9.0477594,2017-12-28T12:19:39Z
0093-7305,Dari Stancer,dstancerfa@mediafire.com,ID,-6.312525,106.1049278,2018-06-11T07:16:40Z
21695-634,Joey Caurah,jcaurahfb@fotki.com,MR,18.0735299,-15.9582372,2018-04-20T07:26:28Z
49939-201,Annemarie Berks,aberksfc@nifty.com,ID,-8.0034823,112.7420274,2018-08-13T16:11:13Z
54868-5576,Elenore Naisey,enaiseyfd@apache.org,ID,-6.9561332,110.2498957,2018-04-02T18:04:23Z
75921-011,Trix Firebrace,tfirebracefe@free.fr,PH,8.7504833,124.7798258,2018-01-05T15:44:14Z
49349-155,Kimmi Jupe,kjupeff@tripadvisor.com,MX,23.7321074,-103.9832684,2018-08-30T11:03:44Z
49643-128,Judi Sieur,jsieurfg@berkeley.edu,BZ,18.0842472,-88.5710266,2017-10-13T19:23:04Z
56062-700,Coleman Kira,ckirafh@cbc.ca,MX,18.8478608,-99.1843676,2018-07-15T14:56:25Z
49348-577,Bobine Gentner,bgentnerfi@businessinsider.com,ES,41.6247751,0.5588787,2017-11-19T00:24:37Z
36987-2239,Paxton Shewery,psheweryfj@fda.gov,CA,45.716147,-73.5471039,2018-07-16T19:15:18Z
50136-555,Leo Cheltnam,lcheltnamfk@microsoft.com,US,32.78,-96.8,2018-05-20T22:04:49Z
44911-0011,Tore Shelmerdine,tshelmerdinefl@samsung.com,SE,60.684976,17.153166,2018-09-02T19:20:31Z
30142-588,Terencio Hellicar,thellicarfm@cnet.com,CA,46.2201972,-64.5346866,2018-05-25T12:36:50Z
0268-0868,Christye Deas,cdeasfn@joomla.org,RU,60.6302526,28.7309501,2018-06-08T06:32:33Z
57627-154,Corina Swin,cswinfo@parallels.com,MA,33.6086342,-7.632555,2017-10-26T00:47:45Z
59572-504,Ignacio Terbeck,iterbeckfp@ameblo.jp,CD,0.8070691,24.4529792,2017-12-05T22:34:40Z
59779-377,Kerry O'Donoghue,kodonoghuefq@acquirethisname.com,CO,8.7078954,-76.0391909,2018-03-21T08:11:57Z
40046-0038,Jemmy Gelland,jgellandfr@ed.gov,PH,10.829771,122.615819,2018-09-20T21:29:08Z
50184-4800,Sonja Sicily,ssicilyfs@hostgator.com,PH,6.8928179,125.1635402,2017-12-16T21:56:18Z
0904-4040,Inessa Bett,ibettft@adobe.com,PL,49.5631235,21.7899388,2018-07-15T15:15:05Z
0378-8115,Chickie Highwood,chighwoodfu@i2i.jp,ID,-7.4061863,109.6490516,2018-06-17T18:48:40Z
65862-198,Dukie Bannon,dbannonfv@scientificamerican.com,PH,13.4570619,123.6791749,2017-10-12T07:22:05Z
41250-204,Joli Lundbech,jlundbechfw@usnews.com,RS,45.3125176,19.7556505,2017-12-04T11:16:39Z
36987-2441,Krystle Durn,kdurnfx@ibm.com,AR,-36.5951114,-61.7625424,2018-06-26T21:27:52Z
65364-110,Hector Jecock,hjecockfy@tinypic.com,CZ,48.9154732,16.8550346,2018-10-05T14:02:45Z
58809-536,Torey Challoner,tchallonerfz@godaddy.com,ID,-8.3765619,115.1918802,2017-12-18T06:29:49Z
49035-281,Adiana Robic,arobicg0@guardian.co.uk,JP,36.567208,137.1294217,2018-08-24T02:41:31Z
58291-0011,Othilia Denniston,odennistong1@blinklist.com,CZ,49.3509463,16.134156,2018-03-30T09:08:13Z
54868-3906,Rea Heintsch,rheintschg2@theglobeandmail.com,BR,-1.371775,-48.3854399,2018-08-20T21:24:04Z
14783-446,Barn Padson,bpadsong3@jalbum.net,CN,24.70521,97.931954,2018-06-29T20:33:22Z
68788-9873,Rutger Yurocjkin,ryurocjking4@skype.com,PL,52.8131502,16.8357836,2018-06-24T05:38:57Z
42851-051,Cornie Tremeer,ctremeerg5@wikipedia.org,AR,-38.7029444,-62.2654522,2018-02-04T23:52:40Z
54868-5523,Milka Lightbourn,mlightbourng6@blog.com,RU,43.1195464,131.8841502,2018-04-13T10:06:33Z
49999-034,Ferrell Trustie,ftrustieg7@theglobeandmail.com,NO,58.9015864,5.7123282,2018-05-11T13:49:24Z
60512-6443,Averell Nielson,anielsong8@marketwatch.com,ID,-7.6534546,110.8046283,2018-03-22T05:14:19Z
44237-009,Lyndel Melburg,lmelburgg9@soundcloud.com,PL,53.39009,19.1548,2018-06-27T20:28:14Z
55154-9371,Norbie Tarquinio,ntarquinioga@gnu.org,PH,12.14428,125.450296,2018-05-02T07:10:07Z
43419-508,Magdaia Alflatt,malflattgb@godaddy.com,ID,-6.8641543,107.6232996,2018-04-01T20:26:11Z
62541-202,Kristo Kaaskooper,kkaaskoopergc@dedecms.com,ID,-8.681402,115.1957203,2018-01-17T17:56:11Z
24623-001,Genovera Platts,gplattsgd@wikia.com,AR,-33.1341591,-64.3479781,2018-07-03T16:50:38Z
63433-122,Cherin Berthel,cberthelge@reverbnation.com,FR,48.6843964,2.2924369,2018-03-15T14:29:00Z
37808-374,Urban Novill,unovillgf@marketwatch.com,EC,-2.3062241,-78.1153707,2018-03-10T06:50:13Z
0143-1773,Olvan Fiennes,ofiennesgg@linkedin.com,PH,14.838448,120.3466175,2018-07-20T03:43:41Z
46122-050,Padraig Maisey,pmaiseygh@apple.com,JP,36.6753224,136.7483601,2018-09-03T17:04:27Z
67296-0362,Ilsa Crotty,icrottygi@blogs.com,BR,-19.7864376,-42.1365821,2018-10-09T21:36:11Z
55714-2221,Marjie Follows,mfollowsgj@wunderground.com,IE,53.806868,-9.1327273,2018-03-26T17:51:38Z
49852-161,Alina Mains,amainsgk@senate.gov,CN,23.492372,115.063823,2017-12-04T04:43:16Z
51079-436,Sheffield Posnett,sposnettgl@opensource.org,UG,1.7642785,33.1506163,2018-01-28T20:13:14Z
49349-357,Fannie Thebe,fthebegm@forbes.com,ID,-6.2277509,106.7092723,2018-01-03T15:30:12Z
54868-0053,Lorena Tandy,ltandygn@com.com,GR,40.5511823,22.249713,2018-04-08T07:00:18Z
59746-338,Ramsey Sterzaker,rsterzakergo@csmonitor.com,MN,48.966667,96.783333,2018-07-23T09:53:40Z
41250-816,Taffy Pierro,tpierrogp@elpais.com,RS,45.5701534,19.6449683,2018-01-04T23:41:19Z
13668-079,Grantley Peperell,gpeperellgq@ed.gov,RU,54.7993525,38.297354,2018-08-22T21:59:44Z
49288-0260,Bernarr Alten,baltengr@rambler.ru,CN,23.156045,112.896606,2018-04-07T05:12:38Z
63187-031,Jaquelyn Moreinu,jmoreinugs@hubpages.com,CN,30.3312397,120.1534039,2018-10-05T14:16:41Z
42254-086,Wilhelm Mowling,wmowlinggt@jimdo.com,ID,-6.5619262,106.3786028,2018-09-12T11:19:15Z
36800-987,Karney Pund,kpundgu@twitter.com,ID,-7.355927,110.6422198,2017-11-06T04:28:15Z
0536-3603,Madeleine Woolnough,mwoolnoughgv@hhs.gov,KR,37.5599805,127.0051893,2018-05-13T13:03:03Z
58503-026,Prudy Bollen,pbollengw@craigslist.org,BE,50.8235717,4.3766927,2018-05-15T11:40:50Z
10096-9360,Opalina Dobsons,odobsonsgx@smh.com.au,CN,22.521523,114.055023,2018-02-20T11:06:53Z
66530-249,Edithe Cawthorne,ecawthornegy@umich.edu,ID,5.191484,97.3705639,2018-01-18T00:35:51Z
59762-0049,Rutter Hyland,rhylandgz@utexas.edu,PH,14.5020933,121.0309165,2017-10-11T08:55:07Z
10202-304,Ramona Brickell,rbrickellh0@gravatar.com,ID,-7.2524177,112.746823,2018-01-15T18:39:45Z
76237-312,Joachim Altimas,jaltimash1@msn.com,NG,12.2257507,4.3822109,2018-01-12T03:48:18Z
16714-417,Hayyim Moxted,hmoxtedh2@posterous.com,FR,47.785421,-3.2602564,2017-10-31T13:54:35Z
49349-923,Duffie Denecamp,ddenecamph3@aol.com,PT,39.3096699,-7.4404863,2018-02-02T08:45:28Z
55118-605,Frannie Fielders,ffieldersh4@wsj.com,RU,43.9576632,43.6312634,2018-06-05T22:37:01Z
49580-0158,Doretta Manuelli,dmanuellih5@globo.com,CU,20.957938,-76.9527836,2017-12-14T05:10:26Z
52854-400,Cinda Rowlings,crowlingsh6@theglobeandmail.com,CN,29.795049,93.850039,2018-04-21T01:15:26Z
37205-362,Madelena Haig,mhaigh7@dedecms.com,BG,43.572786,27.8272802,2018-03-09T10:49:27Z
42549-672,Micky Tate,mtateh8@mapquest.com,JP,37.6214616,140.4902763,2018-04-30T22:23:30Z
61722-181,Gilberta Littlekit,glittlekith9@deliciousdays.com,ID,-7.3742259,108.4454089,2018-02-20T10:47:10Z
0338-0695,Arlin Robinett,arobinettha@wunderground.com,CN,48.635763,124.7681779,2018-05-23T20:09:52Z
11523-0096,Garey Hazelby,ghazelbyhb@w3.org,HN,15.3749395,-86.6850292,2018-01-23T11:12:55Z
0363-0551,Celia Castelluzzi,ccastelluzzihc@blogtalkradio.com,CN,30.8346,117.552738,2018-08-11T19:26:32Z
48951-4106,Tova Tomaszewicz,ttomaszewiczhd@soup.io,BR,-12.1339194,-38.4211655,2018-07-24T07:45:12Z
54569-2391,Bogart Chicchelli,bchicchellihe@tripadvisor.com,CO,3.2572094,-77.2864879,2018-02-01T06:07:05Z
67253-143,Polly Braime,pbraimehf@reuters.com,MY,3.2093353,101.6716295,2018-05-18T19:43:00Z
11084-052,Damien O'Shiels,doshielshg@prweb.com,PT,38.7107263,-9.3975414,2017-12-03T20:41:54Z
68788-9432,Lucila Leyden,lleydenhh@latimes.com,PL,50.6230724,19.2750867,2018-04-13T12:55:46Z
37000-337,Lauryn Vardon,lvardonhi@toplist.cz,VN,21.4364892,103.6927195,2018-06-15T22:40:22Z
36987-1745,Shelby Ferrarini,sferrarinihj@github.com,PS,32.25124,35.26716,2017-11-30T03:01:29Z
50577-0001,Seamus Bruton,sbrutonhk@prweb.com,CN,25.242158,117.326355,2018-08-26T22:13:44Z
55150-157,Clara Oldred,coldredhl@printfriendly.com,PS,31.93592,35.005,2018-03-19T08:43:34Z
40032-030,Randal Dexter,rdexterhm@walmart.com,UA,50.41661,31.46261,2018-01-18T06:23:33Z
64305-003,Sinclare Ghiron,sghironhn@harvard.edu,ID,-7.3170603,109.2891005,2017-10-17T21:58:35Z
11523-4765,Lorita Farren,lfarrenho@canalblog.com,PT,38.9423498,-9.3447224,2018-06-05T16:05:24Z
54473-251,Mikol Hare,mharehp@nature.com,PL,52.3310677,20.9706537,2017-12-12T16:01:28Z
62185-0002,Sherwynd Eaden,seadenhq@apple.com,PK,27.5632781,68.2167517,2018-02-19T22:37:50Z
0406-8330,Kakalina Sakins,ksakinshr@arstechnica.com,FR,47.7489727,7.3507066,2018-07-16T14:56:36Z
37012-994,Juliane Grodden,jgroddenhs@fotki.com,FI,60.4609132,25.0250415,2017-10-22T09:48:23Z
66302-325,Marrilee Stave,mstaveht@narod.ru,UA,48.5239429,37.7075811,2018-03-25T13:34:52Z
68084-643,Devlen Hayman,dhaymanhu@economist.com,ID,-8.5052,118.6133,2018-09-09T00:56:30Z
49349-867,Loralyn Biesty,lbiestyhv@cdbaby.com,SE,65.5759908,22.1917204,2018-06-09T17:36:51Z
36987-1052,Sherm Lintot,slintothw@wsj.com,ID,-8.0412,111.6694,2018-07-30T15:15:53Z
0179-0058,Meredeth Dudley,mdudleyhx@blinklist.com,JP,36.1364291,139.3741999,2018-07-05T05:57:26Z
13537-496,Jere Kemball,jkemballhy@google.fr,SI,46.5641539,16.443954,2017-10-21T06:17:00Z
68788-9917,Deck Shoreman,dshoremanhz@sakura.ne.jp,PH,13.658247,123.017079,2017-10-21T14:28:20Z
33261-361,Vicky McConnel,vmcconneli0@irs.gov,BR,-23.1087262,-50.3675124,2018-10-03T18:47:55Z
76436-137,Britni Poveleye,bpoveleyei1@utexas.edu,VE,10.2535534,-67.9583246,2018-03-21T06:24:47Z
60637-006,Lark Riccardini,lriccardinii2@sciencedirect.com,CN,30.63963,114.385538,2018-01-14T06:58:49Z
0113-0321,Merrill Aneley,maneleyi3@cnn.com,RU,55.906648,94.7518395,2018-06-30T08:34:14Z
52083-653,Orella Drinan,odrinani4@i2i.jp,CN,34.799642,103.202869,2018-06-15T17:48:27Z
25280-005,Farand Gentry,fgentryi5@wiley.com,KR,37.0079695,127.2796786,2018-07-13T18:54:10Z
0363-0588,Alys Bennitt,abennitti6@istockphoto.com,BW,-22.5514872,27.1147095,2018-06-26T11:34:22Z
61748-018,Wallace Ceschelli,wceschellii7@oracle.com,RU,55.807167,37.500595,2018-02-11T22:41:00Z
57664-600,Keslie McLoney,kmcloneyi8@jimdo.com,PL,52.6244001,20.3835279,2017-12-06T16:22:22Z
0615-4568,Curran Jellett,cjelletti9@sohu.com,PH,8.1325883,125.1263623,2018-09-10T16:26:36Z
55154-2077,Merilyn Drinkale,mdrinkaleia@fda.gov,TG,7.5286908,1.1305049,2018-07-26T14:52:30Z
63940-459,Troy Muncer,tmuncerib@unesco.org,CO,5.759368,-73.91453,2018-06-08T04:31:03Z
57664-160,Marv Figgen,mfiggenic@usgs.gov,PL,50.1327056,18.1543922,2018-01-17T03:57:09Z
0781-1047,Janean Getten,jgettenid@nbcnews.com,PE,-12.6117479,-76.6701475,2018-08-08T05:38:47Z
0409-2687,Dael Mateja,dmatejaie@salon.com,UA,49.1077868,34.7299619,2018-07-25T21:04:57Z
17518-002,Sandi Kirtlan,skirtlanif@netvibes.com,ID,-7.3350849,111.46038,2018-07-07T12:46:35Z
41250-417,Caterina Cocci,ccocciig@squarespace.com,ID,-7.025202,107.5259078,2018-07-30T06:45:36Z
21220-127,Linoel Gaye,lgayeih@illinois.edu,CN,29.303706,98.044068,2018-01-22T10:04:49Z
51523-027,Peggie Iiannone,piiannoneii@mysql.com,NZ,-35.7549893,174.2077912,2017-12-27T09:47:07Z
11673-205,Glynn Caulfield,gcaulfieldij@examiner.com,PL,51.5835029,18.942743,2018-07-09T09:45:50Z
21839-111,Tab Litchfield,tlitchfieldik@alexa.com,CO,-0.2142002,-78.4989722,2018-01-07T18:30:58Z
37808-036,Geri Phinnessy,gphinnessyil@delicious.com,CN,31.723247,119.597896,2018-06-28T14:45:32Z
0615-0828,Danella Cockayme,dcockaymeim@comsenz.com,ID,-6.1872497,106.9123883,2018-08-19T07:27:02Z
43353-754,Trescha Pigny,tpignyin@slideshare.net,AO,-9.6612173,20.3904598,2018-02-03T16:43:13Z
13107-064,Merv Claydon,mclaydonio@opensource.org,SE,60.6466216,17.0064517,2018-02-04T08:30:58Z
42681-9032,Herve Adolphine,hadolphineip@japanpost.jp,PL,50.7224545,19.4350533,2018-06-28T21:45:18Z
76214-035,Rik Parmenter,rparmenteriq@mac.com,CN,31.096749,118.19426,2017-10-29T08:37:59Z
24090-961,Harcourt Hastin,hhastinir@gnu.org,GR,39.5328915,25.0121584,2018-04-06T22:39:09Z
47335-891,Lian Fahrenbach,lfahrenbachis@si.edu,MX,19.4052965,-99.1504583,2018-01-07T19:17:20Z
0615-7844,Ario Mabson,amabsonit@addthis.com,ID,-2.7968956,115.1859517,2017-10-11T14:25:37Z
51991-354,Shermie Waddam,swaddamiu@google.com.hk,RU,51.03701,36.7302535,2018-04-18T09:01:40Z
54868-4242,Shirley Easterbrook,seasterbrookiv@geocities.jp,BA,43.1989428,17.5466671,2018-04-19T21:49:11Z
53808-0660,Abbye Minmagh,aminmaghiw@msn.com,JP,34.0313411,131.3494901,2018-06-27T16:31:15Z
55289-475,Murvyn Ayto,maytoix@umn.edu,US,26.8844636,-81.734942,2018-06-16T17:31:19Z
42248-129,Dorrie Ellison,dellisoniy@taobao.com,MA,35.133333,-2.933333,2017-10-22T23:22:23Z
10191-1828,Kermy Oulett,koulettiz@google.pl,ID,-8.4478,123.5082,2018-07-28T20:58:54Z
51346-238,Giustina Osbourne,gosbournej0@hostgator.com,TZ,-1.959951,32.929501,2018-04-18T13:38:56Z
63874-230,Ransom Laxston,rlaxstonj1@foxnews.com,ID,-8.6276559,116.1979749,2017-12-14T23:35:09Z
36987-2581,Velvet Pawlowicz,vpawlowiczj2@bluehost.com,TH,16.8046261,101.0089066,2018-02-25T03:33:17Z
42421-115,Sarette Maleham,smalehamj3@illinois.edu,PS,31.77078,35.26916,2018-09-30T06:05:51Z
60681-1401,Peggi Truman,ptrumanj4@lulu.com,FI,61.7664099,22.4781721,2017-11-26T14:54:56Z
63629-3408,Vale Stalley,vstalleyj5@ning.com,RU,56.2621893,34.3028279,2018-09-22T09:02:33Z
63629-3760,Cloris Yashunin,cyashuninj6@nytimes.com,KZ,47.086965,81.6315231,2018-02-12T21:44:57Z
37808-441,Tomaso Rosenbarg,trosenbargj7@thetimes.co.uk,RS,45.0075322,19.8227166,2018-03-22T02:42:43Z
11822-0407,Lemmy Goutcher,lgoutcherj8@so-net.ne.jp,ID,-6.3503773,106.8974964,2018-02-23T11:06:38Z
40032-160,Lyndsie Ghelarducci,lghelarduccij9@washingtonpost.com,PH,15.4978643,120.8420786,2018-04-15T07:14:46Z
67386-822,Fredric Morhall,fmorhallja@weebly.com,JP,35.4731712,137.0375112,2018-08-12T19:19:28Z
0220-1105,Brook Sprulls,bsprullsjb@github.io,CN,30.940195,118.75868,2018-09-29T12:17:52Z
50268-453,Udale Cregan,ucreganjc@ifeng.com,PT,40.7182748,-7.9809124,2017-11-28T21:23:01Z
58118-1452,Hettie Rosberg,hrosbergjd@phoca.cz,CO,7.7526495,-74.9442585,2018-03-10T15:39:22Z
55111-153,Billy Hanner,bhannerje@archive.org,UA,48.523117,34.613683,2018-05-10T15:43:20Z
52125-258,Faydra Wistance,fwistancejf@vkontakte.ru,TH,13.5820144,101.2818304,2017-12-05T03:04:39Z
35573-006,Prince O'Hannen,pohannenjg@tinypic.com,GR,38.0339984,23.7379786,2017-12-21T22:36:24Z
44206-418,Modesta O'Doogan,modooganjh@archive.org,UA,46.6187667,31.5387942,2018-07-27T23:27:07Z
0002-7512,Westley Hasser,whasserji@sphinn.com,CN,18.252847,109.511909,2017-12-20T19:03:06Z
54868-4338,Enrika Sallier,esallierjj@google.fr,HN,14.279014,-87.6568799,2018-01-25T06:41:06Z
21695-455,Godiva Wolfindale,gwolfindalejk@taobao.com,PL,49.7873125,18.6675302,2017-10-25T11:21:23Z
57520-0328,Gustavus Ethridge,gethridgejl@indiegogo.com,JP,37.6214616,140.4902763,2017-12-19T04:45:08Z
29300-133,Chrysa Lamshead,clamsheadjm@t.co,PL,50.0558922,21.6020199,2018-08-07T15:52:29Z
65954-531,Gibbie Radleigh,gradleighjn@ucla.edu,PL,50.8816379,20.4659289,2018-01-03T15:44:42Z
68151-1487,Shellie Grahl,sgrahljo@typepad.com,ID,-7.0028587,108.2362691,2018-01-13T02:49:03Z
49701-9000,Karel Angelini,kangelinijp@mail.ru,DE,52.3824851,13.3993839,2018-05-22T13:56:17Z
57955-1803,Eustacia Glavias,eglaviasjq@trellian.com,CA,53.88335,-119.13585,2018-09-12T21:11:15Z
54859-505,Sharia Tozer,stozerjr@phpbb.com,CN,32.240853,120.2326771,2018-07-11T01:04:22Z
52389-325,Cindee Nicholls,cnichollsjs@qq.com,ID,-6.7417447,105.7292491,2018-02-09T20:46:43Z
66685-1001,Bogart Royson,broysonjt@hhs.gov,MM,19.6740066,97.2113605,2018-07-22T03:17:53Z
52544-292,Bobbie Limming,blimmingju@wikipedia.org,PE,-13.8791041,-72.875917,2017-12-28T07:17:12Z
51706-501,Arel Blackwell,ablackwelljv@aboutads.info,AM,40.0634518,44.4410909,2018-07-21T19:07:40Z
49348-544,Iona Fattorini,ifattorinijw@dailymotion.com,CN,41.985186,122.836723,2018-10-08T09:17:25Z
35356-087,Tab Cawse,tcawsejx@accuweather.com,AR,-34.5499678,-58.5497795,2018-01-24T09:48:28Z
68084-415,Katina Pikett,kpikettjy@ca.gov,CN,40.621506,119.9745295,2018-09-14T05:39:36Z
68084-279,Jerrie Excell,jexcelljz@pcworld.com,EC,-0.9676533,-80.7089101,2018-05-16T03:06:48Z
55566-5061,Idell Low,ilowk0@freewebs.com,CN,27.718295,119.394148,2017-11-30T10:32:06Z
42961-012,Agustin Zum Felde,azumk1@slate.com,ID,-3.3060598,128.9615888,2018-06-14T13:33:56Z
65841-538,Annamaria Clery,acleryk2@columbia.edu,PT,40.9903208,-7.3943499,2018-02-24T21:43:01Z
10742-8682,Tasia MacAndreis,tmacandreisk3@bizjournals.com,CN,30.63166,114.040353,2018-04-20T07:22:27Z
76358-196,Shelley Dikle,sdiklek4@technorati.com,ID,-6.8931581,112.438087,2018-05-27T22:00:39Z
0615-5574,Mick Pumfrey,mpumfreyk5@phpbb.com,FR,48.6511908,6.481599,2018-01-18T18:29:36Z
41250-588,Meryl Melbert,mmelbertk6@dmoz.org,CN,23.296786,113.823135,2018-03-09T23:39:37Z
75857-9301,Jobi Pigden,jpigdenk7@aboutads.info,RU,57.8991434,34.9594447,2017-12-22T10:12:52Z
33992-1131,Dulciana Wenham,dwenhamk8@printfriendly.com,CN,23.7247599,108.8076195,2018-07-24T21:22:18Z
54868-6329,Shelby Bernardot,sbernardotk9@wordpress.org,PL,53.1395216,14.4504726,2018-08-26T05:58:18Z
50184-1032,Gray Dressel,gdresselka@ow.ly,CN,32.890479,115.814504,2018-08-02T16:17:07Z
64778-0398,Herve Louth,hlouthkb@cafepress.com,BR,-3.7600304,-38.5349814,2018-06-08T13:53:23Z
63739-499,Amii Jewar,ajewarkc@sitemeter.com,FR,44.0570174,4.0057868,2018-02-26T20:12:45Z
66336-561,Brooke Casaletto,bcasalettokd@mozilla.com,PH,14.4450355,121.4022181,2018-03-01T15:19:21Z
23155-114,Xenia Adaway,xadawayke@ox.ac.uk,US,33.9255183,-83.9214896,2018-08-22T06:27:36Z
66902-800,Marta Mowlam,mmowlamkf@typepad.com,JP,38.1536393,140.266785,2018-09-10T00:19:56Z
30805-003,Ariella Fulmen,afulmenkg@merriam-webster.com,PH,10.9357,122.4932,2018-05-11T16:46:58Z
64141-111,Burke Blackah,bblackahkh@goo.ne.jp,VE,7.766667,-71.466667,2018-03-21T19:19:39Z
17478-510,Naomi Longmuir,nlongmuirki@histats.com,YE,17.76999,52.48925,2018-07-30T16:27:07Z
54868-5869,Wilhelm Tenniswood,wtenniswoodkj@g.co,EC,0.0162131,-77.3780201,2018-08-06T11:08:49Z
60432-464,Nada Ogilby,nogilbykk@taobao.com,PK,27.5989477,68.627038,2017-12-15T11:38:42Z
43857-0059,Philly Valente,pvalentekl@soup.io,TZ,-3.7688094,37.7144645,2018-09-21T18:18:59Z
55289-891,Guillema Patten,gpattenkm@cnbc.com,CN,27.218444,116.525725,2018-01-06T19:33:25Z
57677-005,Franky Gourlie,fgourliekn@nytimes.com,AR,-27.3777068,-55.9237269,2018-04-20T00:21:11Z
0009-0520,Jasmine Strethill,jstrethillko@redcross.org,GR,41.1474096,24.9362443,2017-11-05T20:20:26Z
59260-035,Doll Assard,dassardkp@phoca.cz,RU,55.6613674,37.4429397,2017-10-30T14:13:22Z
36987-2018,Aleen Treadway,atreadwaykq@toplist.cz,SS,8.303998,27.993441,2018-04-30T11:36:16Z
63941-530,Rudolf Whorall,rwhorallkr@abc.net.au,PH,14.5672317,121.0298199,2018-08-14T19:56:57Z
50991-597,Kordula Whyborne,kwhyborneks@businesswire.com,BT,27.032207,90.1869644,2017-10-21T16:21:52Z
61957-0121,Linnie Christal,lchristalkt@exblog.jp,CA,49.4992,-98.00156,2018-06-17T12:52:40Z
54868-0586,Carita Sherbrooke,csherbrookeku@last.fm,RU,43.9676803,133.0547021,2017-10-22T06:23:56Z
11673-658,Stirling Bennion,sbennionkv@networkadvertising.org,CZ,49.701827,16.6860132,2018-03-27T15:06:56Z
55111-354,Denys Lidgate,dlidgatekw@va.gov,PL,53.5659675,15.28454,2018-03-08T05:22:26Z
59667-0037,Marlene Lemoir,mlemoirkx@princeton.edu,ET,6.4126332,38.3007613,2018-03-21T11:57:14Z
68151-1472,Prentiss Korn,pkornky@springer.com,CN,48.6429165,124.5597559,2018-08-07T23:05:33Z
0409-2723,Gertruda Skottle,gskottlekz@mediafire.com,CL,-32.75,-70.7208115,2018-06-14T12:50:15Z
49738-431,Jeddy Priestley,jpriestleyl0@chronoengine.com,TH,15.5678638,103.0241726,2017-11-01T09:11:06Z
34908-620,Abdel Cartmale,acartmalel1@free.fr,CN,22.5505556,114.4913889,2018-04-15T14:15:06Z
20276-052,Tucker Reidie,treidiel2@bloglovin.com,LT,54.7974136,24.571229,2018-02-08T03:45:20Z
24385-296,Clareta MacAlister,cmacalisterl3@usnews.com,KP,41.09028,128.29333,2017-11-14T11:53:21Z
0378-0444,Ramsay Gallety,rgalletyl4@adobe.com,ET,9.7986027,38.4271461,2018-03-12T00:55:20Z
34690-6001,Luz Hawkwood,lhawkwoodl5@wp.com,CO,10.5646285,-75.1232201,2018-02-23T18:13:14Z
68828-173,Nariko Paradine,nparadinel6@imdb.com,MN,46.2686934,95.2732977,2018-01-23T19:41:54Z
54868-6061,Theodoric Salla,tsallal7@dot.gov,PH,14.565668,121.0317737,2018-03-31T10:17:15Z
49981-007,Lianne Hounson,lhounsonl8@t-online.de,AU,-37.7236851,144.9633285,2018-04-18T09:11:15Z
55045-1147,Ernaline Wildes,ewildesl9@dell.com,ID,-10.1709258,123.6059899,2018-03-16T18:57:01Z
0026-3786,Suzanna Caselli,scasellila@nps.gov,JP,32.730304,129.8728011,2018-05-23T15:55:03Z
36987-2268,Caren Lawie,clawielb@wordpress.org,ID,-9.5252,119.5923,2018-01-27T21:39:36Z
68788-9906,Mechelle Ainscough,mainscoughlc@mtv.com,RU,55.1860004,44.1197993,2017-12-26T13:12:41Z
10096-0192,Merrily Isaacson,misaacsonld@alexa.com,JP,37.6703123,140.6062909,2017-12-16T22:19:34Z
51531-4160,Salli Molan,smolanle@chronoengine.com,FR,45.925854,6.1250598,2018-07-18T13:50:47Z
76340-1301,Hagan Coale,hcoalelf@illinois.edu,CN,25.241174,115.748629,2018-04-10T09:48:27Z
52183-239,Rabi Halbard,rhalbardlg@xing.com,RU,59.1201253,37.9014795,2018-03-12T01:06:04Z
11697-462,Annadiane Rogers,arogerslh@slate.com,HR,45.1604718,14.7725567,2018-03-02T01:47:10Z
54868-5000,Claudetta Mabb,cmabbli@arstechnica.com,PL,49.7287057,20.1353402,2018-06-14T20:28:28Z
51346-067,Isak Hullah,ihullahlj@chronoengine.com,PH,17.8200009,120.4544261,2018-07-10T15:42:23Z
0179-0123,Donal Jina,djinalk@hc360.com,BR,-22.96667,-53.66667,2017-11-06T05:51:40Z
51645-600,Garrik Coonihan,gcoonihanll@buzzfeed.com,FR,48.0724737,7.3469006,2018-05-12T08:44:10Z
62191-007,Anton Naptin,anaptinlm@ocn.ne.jp,NG,8.721124,5.7563151,2018-01-05T08:25:58Z
53329-075,Hyacintha Nunn,hnunnln@yellowpages.com,VN,21.6837923,104.4551361,2018-01-16T20:04:31Z
0395-1670,Corrina Worthing,cworthinglo@latimes.com,RU,54.42789,48.26675,2018-03-11T23:19:59Z
0143-3370,Ruth von Grollmann,rvonlp@xrea.com,ID,-6.5483,105.9235,2018-01-02T15:21:10Z
24488-003,Hamilton Mawdsley,hmawdsleylq@seesaa.net,NG,11.924,13.5986529,2017-11-01T03:24:13Z
0615-6588,Neall Heeney,nheeneylr@wired.com,VN,10.7540279,106.6633746,2017-12-31T10:19:01Z
53808-0931,Doralin Pirelli,dpirellils@senate.gov,CN,26.312444,99.850365,2018-04-02T11:45:51Z
41268-165,Devi Tousey,dtouseylt@dyndns.org,ID,-7.3706874,108.5342487,2017-12-27T02:26:18Z
54868-3722,Miof mela Jephcote,mmelalu@hc360.com,CN,30.54251,119.9774,2018-07-17T14:39:22Z
0430-0210,Yoshiko Filchakov,yfilchakovlv@godaddy.com,FI,60.9529954,22.8649749,2017-12-17T03:21:30Z
11084-130,Ranna Pickvance,rpickvancelw@elegantthemes.com,PH,7.9187344,125.3297787,2018-09-30T16:47:38Z
66336-973,Conchita Maling,cmalinglx@liveinternet.ru,CN,39.942418,116.725642,2018-07-27T23:51:58Z
37000-609,Blanca Olrenshaw,bolrenshawly@nifty.com,AR,-31.3224313,-62.813111,2018-05-07T08:22:10Z
50114-5347,Lisha Linskey,llinskeylz@parallels.com,PH,17.1056791,120.4557309,2018-09-05T13:02:00Z
67510-0082,Ronalda Maddocks,rmaddocksm0@example.com,PT,39.4825368,-8.609605,2018-05-20T04:00:31Z
49999-804,Olenka Lightbody,olightbodym1@google.it,IQ,30.5081033,47.7834888,2018-03-25T08:49:00Z
49825-694,Rachelle Dumbare,rdumbarem2@un.org,FI,63.3767052,23.472317,2018-04-28T17:51:37Z
62839-3904,Brenn Cowperthwaite,bcowperthwaitem3@nbcnews.com,CZ,50.03197,17.0405873,2018-09-12T16:34:02Z
67751-095,Hurleigh Hursthouse,hhursthousem4@youtu.be,PL,52.32659,17.1790537,2018-04-27T14:38:04Z
54340-005,Gerek Wheway,gwhewaym5@hexun.com,FI,60.7651227,26.7869193,2017-12-30T00:00:54Z
0338-0023,Allan Willan,awillanm6@over-blog.com,PH,11.427407,122.597251,2017-10-21T03:10:20Z
67751-053,Emera Pattenden,epattendenm7@mapquest.com,CN,35.071102,115.573036,2018-06-25T15:24:57Z
61919-585,Abbi Myles,amylesm8@gmpg.org,AZ,40.6236168,47.7403034,2018-07-18T09:17:36Z
43353-614,Cary Abrahm,cabrahmm9@acquirethisname.com,BR,-26.8039789,-48.6489134,2018-01-01T20:26:02Z
67544-720,Conni Wrefford,cwreffordma@foxnews.com,US,33.9548846,-118.0273914,2018-07-31T12:19:57Z
10202-379,Niki Pelzer,npelzermb@360.cn,PS,31.47454,35.10742,2018-01-15T04:32:45Z
52584-881,Upton Stampe,ustampemc@goo.ne.jp,CN,38.416663,112.734174,2017-11-07T14:34:35Z
42903-003,Eben Swithenby,eswithenbymd@amazon.co.jp,ID,-6.8961,112.932,2018-08-03T20:29:37Z
51060-061,Audrey Greenin,agreeninme@tinypic.com,LA,20.4170831,104.04787,2018-05-06T12:00:17Z
55670-122,Julie Iremonger,jiremongermf@icq.com,IR,34.8062744,46.4922002,2018-08-15T19:51:36Z
10678-008,Ezechiel Warlawe,ewarlawemg@com.com,PH,14.5625862,121.0311185,2018-09-19T06:21:28Z
0187-5172,Waverly Bamborough,wbamboroughmh@paypal.com,JP,36.229138,139.8961591,2017-11-08T22:21:07Z
21130-602,Haskel Hardcastle,hhardcastlemi@mysql.com,PA,7.5164282,-78.1607186,2018-05-15T23:02:27Z
56153-003,Lyndsay Dudmesh,ldudmeshmj@issuu.com,NL,52.3739053,4.615857,2018-08-25T21:40:46Z
67777-306,Luci Raynton,lrayntonmk@unc.edu,SI,45.9402271,15.4773182,2018-06-18T11:58:57Z
64064-003,Hartwell Broster,hbrosterml@hao123.com,CN,28.425613,109.56834,2018-06-02T05:47:44Z
49349-610,Matthaeus Stock,mstockmm@list-manage.com,BY,55.4618616,29.9874438,2018-05-04T03:50:23Z
0115-1494,Blondie Bernot,bbernotmn@whitehouse.gov,SE,59.3042543,18.0310357,2018-02-22T14:24:53Z
0378-3002,Garrek Olford,golfordmo@cbslocal.com,AM,40.0912332,44.4037713,2018-05-06T15:38:53Z
48878-3140,Obed Aloshkin,oaloshkinmp@cnbc.com,PH,13.8188768,120.1990703,2018-08-24T22:10:58Z
63629-3393,Valaria McAlees,vmcaleesmq@examiner.com,PH,10.333833,123.9266643,2018-07-02T05:07:39Z
10742-8293,Hadley Ainslie,hainsliemr@blog.com,ID,-6.6111441,106.8473377,2018-03-13T14:56:50Z
43353-510,Anne Nodes,anodesms@xrea.com,ID,-6.9860581,112.5364292,2018-01-31T15:31:07Z
37000-125,Conant Faucett,cfaucettmt@artisteer.com,CN,34.6040791,119.1782422,2018-06-09T04:18:18Z
59970-048,Cosme Garvill,cgarvillmu@typepad.com,CN,33.226552,115.600976,2017-12-12T12:37:17Z
48871-006,Terra Hassur,thassurmv@cornell.edu,PH,10.6095479,122.955299,2017-10-19T23:44:04Z
52125-711,Leonanie Trimme,ltrimmemw@51.la,UA,48.8117212,29.9738949,2018-06-18T17:01:23Z
54868-3105,Bernadina Wathall,bwathallmx@dailymail.co.uk,US,27.791959,-82.723924,2018-01-06T17:25:36Z
68685-0001,Spenser Sharer,ssharermy@jimdo.com,AU,-34.0349557,151.0998291,2018-01-30T02:15:31Z
0904-2528,Sheri Kenworthey,skenwortheymz@yahoo.com,PL,50.6375507,17.8149641,2018-04-19T13:49:03Z
59078-002,Hermina Gleave,hgleaven0@paginegialle.it,FR,49.2958555,4.3603508,2018-02-07T02:49:38Z
58466-023,Abran Drury,adruryn1@topsy.com,SL,8.2596,-11.1914,2018-07-15T10:25:07Z
67457-571,Maxim Deware,mdewaren2@1688.com,KE,1.7488388,40.058633,2018-01-18T19:15:41Z
51346-249,Abigail Brunn,abrunnn3@indiegogo.com,CO,7.268697,-72.642495,2018-02-10T22:19:12Z
41250-063,Delmer Crocroft,dcrocroftn4@live.com,CN,44.142359,87.592379,2018-04-30T04:23:34Z
0268-6519,Janeva Jessard,jjessardn5@360.cn,CN,29.270311,88.880492,2018-05-04T18:51:16Z
51672-1290,Lilli Deners,ldenersn6@symantec.com,NG,5.1079431,8.1789301,2018-07-18T13:36:21Z
41520-188,Sarah Hebbard,shebbardn7@dagondesign.com,CA,49.0965676,-117.71173,2018-06-28T05:13:44Z
42254-023,Hamel McCroft,hmccroftn8@bigcartel.com,CN,42.871502,127.501873,2018-05-07T19:43:19Z
11822-0519,Olympia Philipsen,ophilipsenn9@about.com,SE,59.3319856,17.9512673,2018-01-27T18:44:17Z
51862-210,Lita Fawthorpe,lfawthorpena@berkeley.edu,PK,31.2470602,74.2308449,2018-01-09T02:30:55Z
64578-0106,Vinson Warbrick,vwarbricknb@tmall.com,PE,-15.6418418,-71.7674379,2018-09-05T15:54:43Z
0703-0031,Hyacinth Martin,hmartinnc@google.fr,PT,37.1306168,-7.650062,2017-12-22T07:24:35Z
50963-809,Lorena Stockton,lstocktonnd@indiatimes.com,ID,-6.1869527,106.1698563,2017-12-24T07:03:12Z
0406-0123,Egon Minogue,eminoguene@rakuten.co.jp,CN,43.1520105,126.4371385,2018-04-17T12:34:10Z
0597-0017,Melicent Karolowski,mkarolowskinf@yale.edu,CA,45.6628665,-73.8134978,2017-11-17T00:27:11Z
0536-4742,Tedi Bullon,tbullonng@indiatimes.com,CN,38.235041,115.726317,2018-09-02T04:00:29Z
0268-6185,Peter Iacopo,piacoponh@nih.gov,NL,52.2424706,6.2281859,2017-11-15T11:21:45Z
54738-906,Meridith Rockliffe,mrockliffeni@nbcnews.com,CZ,50.6261682,13.9528289,2018-06-10T04:17:43Z
54868-5835,Dianna Keppin,dkeppinnj@ovh.net,HR,45.5458137,18.28907,2018-02-13T03:52:21Z
36987-2867,Felike Markson,fmarksonnk@hugedomains.com,JP,34.6192998,133.8246072,2017-10-14T03:53:52Z
25021-402,Sula Fetherston,sfetherstonnl@myspace.com,CN,43.236609,88.409879,2018-06-15T00:49:40Z
0270-1410,Courtnay Wapplington,cwapplingtonnm@ow.ly,IR,36.6415869,59.1213974,2018-07-06T00:15:57Z
63629-1340,Quent Marsters,qmarstersnn@edublogs.org,FR,45.6739962,4.956609,2017-12-10T14:43:37Z
11822-0958,Annelise Hallifax,ahallifaxno@forbes.com,CN,22.517585,113.39277,2017-12-06T15:07:42Z
57520-0153,Kris Fuzzey,kfuzzeynp@live.com,PT,41.4204087,-8.3676461,2017-12-08T00:12:31Z
24236-625,Nelly Bysaker,nbysakernq@t.co,US,39.9311729,-104.9739333,2018-10-02T18:25:30Z
21695-350,Agneta Hasser,ahassernr@wiley.com,BI,-2.9083521,29.8265492,2018-02-10T19:58:29Z
41190-425,Darnall Walenta,dwalentans@fotki.com,JP,35.8439572,136.1916906,2018-01-25T01:32:27Z
55287-101,Agustin Chapelhow,achapelhownt@1und1.de,ID,-8.5697306,123.3991028,2018-08-30T23:56:26Z
11673-003,Marilin MacLese,mmaclesenu@imgur.com,CA,47.4175416,-72.7840882,2018-04-27T00:25:53Z
64942-1326,Milissent Whales,mwhalesnv@spotify.com,ID,-7.9822189,111.4782661,2018-02-20T10:26:53Z
0378-1404,Nelly Carous,ncarousnw@t.co,CN,22.691253,114.346251,2018-01-24T17:25:00Z
76075-101,Jaymee Pressdee,jpressdeenx@cornell.edu,JP,37.5165459,140.9330205,2018-10-04T16:54:24Z
50241-014,Jocelyne Meeland,jmeelandny@oracle.com,PE,-11.7386611,-75.5611485,2018-06-08T00:27:42Z
0003-0249,Jennie Plevin,jplevinnz@reverbnation.com,RU,53.8580495,32.4202638,2018-07-26T13:42:06Z
0942-6449,Valaria Taffurelli,vtaffurellio0@toplist.cz,PS,32.171553,35.097462,2017-11-12T06:29:25Z
59762-0702,Eleanora Chicco,echiccoo1@admin.ch,VE,7.7713572,-72.2261466,2018-01-26T16:18:48Z
36800-486,Mikkel Baiden,mbaideno2@aboutads.info,GR,35.3113485,25.313023,2017-10-17T17:51:20Z
49658-3001,Gwenora Baldocci,gbaldoccio3@parallels.com,CN,29.8637597,121.5936562,2017-11-14T17:48:38Z
62011-0096,Kahlil Vernall,kvernallo4@vistaprint.com,FR,48.689836,6.17445,2018-02-14T23:11:26Z
13630-0055,Patty Petrowsky,ppetrowskyo5@yellowbook.com,HN,14.8921247,-87.1711922,2018-09-20T14:57:40Z
54868-4892,Peder Gave,pgaveo6@usgs.gov,US,32.4545928,-93.7079745,2018-04-08T15:00:10Z
55154-4029,Aldous McEniry,amceniryo7@mediafire.com,US,39.1,-94.58,2018-02-18T14:03:05Z
63304-791,Leann McNae,lmcnaeo8@amazon.com,KP,39.6211427,125.6638035,2017-12-09T12:55:24Z
11084-255,Loree Crowche,lcrowcheo9@delicious.com,PL,53.54091,15.55963,2018-02-12T13:52:10Z
60949-150,Larisa Shoutt,lshouttoa@state.gov,ZA,-34.0896763,23.3261801,2018-08-12T09:52:10Z
58411-108,Shena Duckett,sduckettob@foxnews.com,PL,50.7798051,15.8470487,2018-06-16T07:17:44Z
50154-0040,Marge Veare,mveareoc@bloglovin.com,FR,48.8134287,7.7825969,2017-10-25T13:24:46Z
16729-021,Zacharias Rushbrooke,zrushbrookeod@salon.com,ID,-6.9198702,113.8227792,2018-06-20T05:22:03Z
54868-4338,Dena De Filippis,ddeoe@slate.com,ID,-7.0321604,108.6858533,2017-11-29T06:22:04Z
43353-900,Pietrek Clapshaw,pclapshawof@myspace.com,US,38.35,-81.64,2018-04-28T16:04:29Z
10893-600,Hewie Senyard,hsenyardog@wufoo.com,RU,57.3132065,32.0880477,2018-08-11T15:12:18Z
35831-001,Dorise Coward,dcowardoh@networkadvertising.org,PL,50.7338713,16.0708309,2018-04-30T22:07:39Z
57520-0684,Jamesy Burchett,jburchettoi@alibaba.com,ID,-6.922586,107.6060501,2017-11-03T07:02:34Z
49288-0813,Dukie Frewer,dfreweroj@sina.com.cn,RU,52.664639,35.8136035,2018-02-23T07:50:41Z
52343-026,Claudius Gutsell,cgutsellok@jalbum.net,YE,17.39713,43.47743,2018-08-12T18:15:17Z
37000-522,Thatcher Littlejohn,tlittlejohnol@sfgate.com,ID,-6.695,111.464,2018-03-07T05:06:49Z
49981-019,Hillary Tarry,htarryom@edublogs.org,CN,25.852003,98.8529872,2018-04-23T22:59:07Z
13537-190,Virgilio Yexley,vyexleyon@boston.com,PL,51.9857896,21.1921379,2018-06-20T08:48:16Z
0409-1746,Xerxes Sonnenschein,xsonnenscheinoo@usatoday.com,KR,35.5383773,129.3113596,2017-12-06T14:21:03Z
58930-051,Robbie Outram,routramop@skype.com,ID,-8.6796987,120.3896651,2018-07-12T15:29:27Z
48951-3077,Warde Rosenfelt,wrosenfeltoq@mediafire.com,ID,-8.4942298,118.5360226,2018-02-04T10:12:56Z
67457-410,Candis Shafe,cshafeor@over-blog.com,MZ,-25.0263578,33.1070309,2017-10-12T07:50:30Z
0378-6750,Nadya Scrooby,nscroobyos@networksolutions.com,SE,60.6815788,17.1350993,2018-03-29T08:21:14Z
0268-0006,Sully Leverentz,sleverentzot@google.ru,AR,-31.4411018,-64.1257463,2017-12-24T04:21:33Z
66472-023,Melina Ferrolli,mferrolliou@foxnews.com,ID,-7.4104934,110.3279026,2018-03-12T07:44:44Z
64141-704,Abby Fritz,afritzov@redcross.org,MN,49.1169513,101.449837,2018-04-28T06:31:37Z
36800-903,Kristian Overstone,koverstoneow@sciencedaily.com,CN,39.9041999,116.4073963,2018-10-09T01:25:41Z
64893-903,Burk De Cristofalo,bdeox@hud.gov,ID,-2.9118209,119.3250347,2018-01-29T09:25:48Z
0955-1016,Niko Barcke,nbarckeoy@npr.org,JP,26.3841358,127.804829,2017-10-26T09:38:47Z
76439-345,Alic Bilverstone,abilverstoneoz@godaddy.com,CL,-30.6978944,-70.9586889,2017-10-16T03:52:57Z
37205-022,Neilla MacNulty,nmacnultyp0@mediafire.com,ID,-7.3260543,108.3655011,2018-03-16T22:27:52Z
50845-0136,Cilka Pearcehouse,cpearcehousep1@tripadvisor.com,CN,27.568278,117.562238,2018-10-07T18:51:32Z
55714-4463,Gaye Shelmerdine,gshelmerdinep2@toplist.cz,ID,-8.4595561,115.0465991,2017-11-29T22:26:08Z
42507-990,Ham Kilmurray,hkilmurrayp3@cornell.edu,AR,-27.4308908,-65.6147813,2018-07-07T06:01:34Z
49738-558,Norbert Eyles,neylesp4@goo.ne.jp,GR,39.3112503,26.2201411,2018-03-29T07:29:56Z
64578-0081,Cristabel Cobley,ccobleyp5@prnewswire.com,CN,25.648962,111.675265,2018-02-07T04:03:36Z
63629-1241,Briney Bohey,bboheyp6@woothemes.com,CO,4.874181,-75.170429,2017-10-11T21:56:51Z
0498-7500,Merl Dory,mdoryp7@loc.gov,CN,22.879493,116.061522,2018-07-15T01:51:01Z
50405-001,Trula Glendenning,tglendenningp8@house.gov,CA,51.56668,-101.90093,2018-08-16T10:54:09Z
64117-278,Giffy Seleway,gselewayp9@lycos.com,BR,-6.238218,-36.4797126,2018-07-02T10:14:36Z
54092-515,Patsy Vero,pveropa@xrea.com,VE,10.2214803,-71.3111773,2018-06-11T02:36:38Z
65616-005,Rhonda Armor,rarmorpb@google.it,CN,39.630867,118.180193,2017-10-27T20:24:35Z
64725-5914,Keriann Milella,kmilellapc@ox.ac.uk,UA,48.392,38.60174,2018-06-02T22:09:09Z
0013-5301,Amos Siddens,asiddenspd@mlb.com,CZ,50.0461011,13.757651,2018-04-06T22:59:55Z
65841-058,Moe Oakshott,moakshottpe@cnn.com,AR,-26.8193949,-65.1435685,2017-10-27T00:53:41Z
54868-0235,Roland Brandt,rbrandtpf@ibm.com,US,44.7984858,-93.1277854,2018-05-22T08:58:45Z
36987-3442,Kermit Houseman,khousemanpg@so-net.ne.jp,FR,47.3411618,0.723116,2018-06-15T01:17:15Z
0069-0971,Bone Whitney,bwhitneyph@ezinearticles.com,CN,27.603696,119.17189,2018-03-02T06:36:34Z
0615-2594,Augustine Foxton,afoxtonpi@meetup.com,RU,52.5666667,78.9472223,2017-11-23T12:48:02Z
54868-4419,Alec Hoyles,ahoylespj@youtu.be,PH,14.6701,121.108226,2018-07-07T06:14:37Z
36987-1296,Rosalia Whitebrook,rwhitebrookpk@sogou.com,CN,34.810487,117.323725,2018-01-12T02:05:20Z
13107-020,Simonette Nineham,sninehampl@princeton.edu,PE,-7.3195036,-76.7769324,2017-10-19T11:40:02Z
59535-3201,Cathee Dowdeswell,cdowdeswellpm@w3.org,NE,13.9501075,7.6710889,2018-09-14T10:45:47Z
41595-7007,Leonid Nuzzi,lnuzzipn@jiathis.com,ID,-6.8626591,111.2308467,2018-03-11T02:11:36Z
36987-1860,Regan Lewsam,rlewsampo@amazon.de,CN,40.381657,116.948097,2017-12-26T00:23:16Z
67868-054,Yettie Batisse,ybatissepp@skype.com,CO,4.994942,-75.8048759,2018-08-29T20:10:58Z
51346-129,Danika Toffel,dtoffelpq@nbcnews.com,LA,14.1175166,105.8547173,2018-01-17T10:17:05Z
0597-0017,Eloisa Mackieson,emackiesonpr@i2i.jp,IE,52.9480781,-7.0472382,2018-07-08T16:01:49Z
0555-0791,Elihu Kerford,ekerfordps@cloudflare.com,CN,32.575484,105.238842,2018-02-03T03:58:28Z
55154-2869,Ignacius Dennett,idennettpt@artisteer.com,SI,46.2003906,14.5829648,2017-10-25T08:27:01Z
54575-969,Myrvyn Farran,mfarranpu@redcross.org,IR,28.8395155,52.5638794,2017-11-19T11:24:15Z
68258-5978,Alexandros Collinette,acollinettepv@webeden.co.uk,FR,48.5625988,3.3093771,2018-07-13T05:49:54Z
76049-899,Lyndell Ginty,lgintypw@wikia.com,CN,37.185925,122.255334,2018-03-01T19:34:06Z
68084-472,Karyn Cawthorne,kcawthornepx@purevolume.com,CZ,49.7769817,16.9194672,2018-05-11T10:17:06Z
49288-0727,Hebert Ovill,hovillpy@joomla.org,CO,10.8967752,-74.8214693,2018-07-29T18:55:32Z
43857-0204,Clerissa Van der Brugge,cvanpz@japanpost.jp,ZW,-20.2906811,28.9383082,2017-10-19T05:53:37Z
68788-9951,Darrell Runchman,drunchmanq0@foxnews.com,CN,22.948016,113.366904,2018-02-18T12:15:35Z
0143-9918,Maressa Livingstone,mlivingstoneq1@squarespace.com,CN,52.3982331,13.2448535,2018-07-22T15:15:21Z
55154-3198,Eleanor Colson,ecolsonq2@tiny.cc,TH,13.7836468,100.4842054,2017-11-29T07:36:55Z
51389-204,Herta Truss,htrussq3@miitbeian.gov.cn,KM,-12.1584708,44.4364706,2018-04-26T08:25:41Z
60505-0399,Cathe Zanettini,czanettiniq4@cafepress.com,SE,59.162099,15.2696961,2018-05-29T19:52:25Z
63264-101,Karol Gerckens,kgerckensq5@shop-pro.jp,MX,25.8903957,-97.4990069,2018-03-15T04:35:40Z
0603-4111,Whit Coltart,wcoltartq6@moonfruit.com,CN,22.656408,114.019351,2017-10-25T05:23:04Z
55714-8015,Ashely Lambersen,alambersenq7@nbcnews.com,ID,-7.05513,108.6264694,2018-07-14T06:45:52Z
49349-356,Esme Glanester,eglanesterq8@merriam-webster.com,CO,10.148976,-73.960233,2018-04-25T01:09:10Z
10096-0249,Trula Theodore,ttheodoreq9@amazonaws.com,CN,32.187849,119.425836,2018-05-25T19:08:59Z
51655-111,Angus Elsay,aelsayqa@thetimes.co.uk,ID,-8.1221236,112.0640052,2018-06-15T21:56:52Z
65044-3716,Lonnard Irons,lironsqb@livejournal.com,PL,51.167963,19.4883692,2018-05-31T03:52:21Z
59779-336,Brigida Fysh,bfyshqc@boston.com,BR,-22.1859595,-46.7655989,2018-04-26T18:20:17Z
51991-713,Frieda Litterick,flitterickqd@topsy.com,CN,23.72892,109.183333,2017-10-25T20:47:11Z
0591-3745,Tiphanie Addicott,taddicottqe@facebook.com,ID,-6.0776348,105.8936224,2018-06-12T12:09:13Z
55651-264,Donal Gentreau,dgentreauqf@washingtonpost.com,MX,28.6517195,-100.5577685,2018-08-09T07:17:25Z
64942-1258,Bendicty Boij,bboijqg@who.int,UY,-34.5244257,-56.3908165,2018-01-10T08:13:32Z
61703-408,Glenn Swancock,gswancockqh@over-blog.com,MK,41.88306,21.1275,2018-01-09T21:54:27Z
57520-0835,Myrtia Bohea,mboheaqi@pen.io,NG,10.37418,11.69541,2017-11-20T06:58:14Z
49908-167,Paton Eyree,peyreeqj@live.com,FM,7.5433333,149.4122222,2018-04-03T17:33:32Z
11103-001,Marv D'Ambrogio,mdambrogioqk@ihg.com,NG,12.7494718,4.5366582,2018-06-16T12:10:09Z
55154-4782,Rickert Orvis,rorvisql@gizmodo.com,NI,12.1564921,-86.3528838,2018-04-16T09:37:32Z
0409-1215,Opaline Korda,okordaqm@sourceforge.net,ZA,-29.7108776,29.5078015,2018-05-31T14:39:02Z
47993-200,Edythe Norsworthy,enorsworthyqn@nifty.com,CN,36.406404,94.928484,2018-05-16T11:31:39Z
48878-3101,Harland Carl,hcarlqo@bloglovin.com,CN,25.5225011,111.7226167,2018-07-16T00:57:19Z
49288-0107,Denys Larkkem,dlarkkemqp@instagram.com,FR,48.8493975,2.4751086,2018-06-21T09:03:05Z
37000-241,Norrie McGeoch,nmcgeochqq@cnet.com,CN,23.4024253,117.1166128,2018-05-02T18:41:50Z
0363-0189,Serena Wrixon,swrixonqr@gnu.org,ID,-7.2033646,111.6630914,2018-01-01T13:15:14Z
36987-2817,Oran Goldis,ogoldisqs@noaa.gov,TH,16.9818844,104.4490398,2018-07-22T02:52:27Z
55312-250,Mohandas Morland,mmorlandqt@facebook.com,PT,39.8547136,-8.8790902,2018-08-20T12:44:33Z
64159-6347,Brit Dumigan,bdumiganqu@bbb.org,ID,4.427369,98.057241,2018-08-31T04:26:20Z
36800-912,Pavla Shotbolt,pshotboltqv@yellowpages.com,BO,-20.4413004,-63.2798225,2017-10-13T16:39:21Z
63776-035,Massimo Sargeaunt,msargeauntqw@epa.gov,ID,-6.745694,111.0438053,2018-07-05T10:55:09Z
63323-173,Valentin Halloway,vhallowayqx@sun.com,ID,-7.1697343,108.8343538,2018-07-04T13:02:21Z

